<?xml version="1.0" encoding="UTF-8" standalone="no"?>
<!-- Created with Inkscape (http://www.inkscape.org/) -->

<svg
   xmlns:dc="http://purl.org/dc/elements/1.1/"
   xmlns:cc="http://creativecommons.org/ns#"
   xmlns:rdf="http://www.w3.org/1999/02/22-rdf-syntax-ns#"
   xmlns:svg="http://www.w3.org/2000/svg"
   xmlns="http://www.w3.org/2000/svg"
   xmlns:sodipodi="http://sodipodi.sourceforge.net/DTD/sodipodi-0.dtd"
   xmlns:inkscape="http://www.inkscape.org/namespaces/inkscape"
   width="178.33908mm"
   height="71.231918mm"
   viewBox="0 0 178.33908 71.231918"
   version="1.1"
   id="svg21256"
   inkscape:version="0.92.3 (2405546, 2018-03-11)"
   sodipodi:docname="EVENT_BUFFER_MODE_GET_OLD.svg"
   inkscape:export-filename="W:\OneDrive\OneDrive - SECO SPA\TamperProtocol\Command\BufferModeGet.png"
   inkscape:export-xdpi="150"
   inkscape:export-ydpi="150">
  <defs
     id="defs21250" />
  <sodipodi:namedview
     id="base"
     pagecolor="#ffffff"
     bordercolor="#666666"
     borderopacity="1.0"
     inkscape:pageopacity="0.0"
     inkscape:pageshadow="2"
     inkscape:zoom="1.4"
     inkscape:cx="258.54672"
     inkscape:cy="143.24356"
     inkscape:document-units="mm"
     inkscape:current-layer="layer1"
     showgrid="false"
     fit-margin-top="0"
     fit-margin-left="0"
     fit-margin-right="0"
     fit-margin-bottom="0"
     inkscape:window-width="1920"
     inkscape:window-height="1137"
     inkscape:window-x="-8"
     inkscape:window-y="-8"
     inkscape:window-maximized="1" />
  <metadata
     id="metadata21253">
    <rdf:RDF>
      <cc:Work
         rdf:about="">
        <dc:format>image/svg+xml</dc:format>
        <dc:type
           rdf:resource="http://purl.org/dc/dcmitype/StillImage" />
        <dc:title></dc:title>
      </cc:Work>
    </rdf:RDF>
  </metadata>
  <g
     inkscape:label="Livello 1"
     inkscape:groupmode="layer"
     id="layer1"
     transform="translate(2.2350168,-98.85428)">
    <text
       style="font-style:normal;font-variant:normal;font-weight:normal;font-stretch:normal;font-size:3.17499995px;font-family:Calibri;-inkscape-font-specification:'Calibri, Normal';font-variant-ligatures:normal;font-variant-caps:normal;font-variant-numeric:normal;font-feature-settings:normal;text-align:start;writing-mode:lr-tb;text-anchor:start;fill:#000000;fill-opacity:1;fill-rule:nonzero;stroke:none;stroke-width:0.2215367"
       id="text610-1-2"
       x="5.4458365"
       y="114.98661">
      <tspan
         style="stroke-width:0.2215367"
         sodipodi:role="line"
         id="tspan18580"
         x="5.4458365"
         y="114.98661">EVENT_BUFFER_MODE GET - Read Block of Data to Device</tspan>
    </text>
    <text
       style="font-style:normal;font-variant:normal;font-weight:normal;font-stretch:normal;font-size:2.11666656px;font-family:Calibri;-inkscape-font-specification:'Calibri, Normal';font-variant-ligatures:normal;font-variant-caps:normal;font-variant-numeric:normal;font-feature-settings:normal;text-align:start;writing-mode:lr-tb;text-anchor:start;fill:#000000;fill-opacity:1;fill-rule:nonzero;stroke:none;stroke-width:0.2215367"
       id="text656-2-6"
       x="7.9739676"
       y="119.92181">
      <tspan
         x="7.9739676 9.6089239 10.924853 12.126475 12.735264 13.859794 15.183709 15.78452 16.590033 17.682669 18.956072 19.849327 21.080162 22.390823 23.28141 24.086926 24.687738 26.226988 27.622677 29.018375 29.914267 31.238176 32.277637 33.317097 33.917912 34.723427 36.07127 36.672081 38.067776 38.676563 39.575115 40.614574"
         y="119.92181"
         sodipodi:role="line"
         id="tspan654-8-6"
         style="font-style:normal;font-variant:normal;font-weight:normal;font-stretch:normal;font-size:2.11666656px;font-family:Calibri;-inkscape-font-specification:'Calibri, Normal';font-variant-ligatures:normal;font-variant-caps:normal;font-variant-numeric:normal;font-feature-settings:normal;text-align:start;writing-mode:lr-tb;text-anchor:start;stroke-width:0.2215367">Device (Target) Address (7 bits)</tspan>
    </text>
    <path
       inkscape:connector-curvature="0"
       id="path658-5-7"
       style="fill:#cbcbcb;fill-opacity:1;fill-rule:evenodd;stroke:none;stroke-width:0.02215367"
       d="m 49.105299,131.28174 h 4.495649 v -4.41525 h -4.495649 z" />
    <path
       inkscape:connector-curvature="0"
       id="path660-1-5"
       style="fill:none;stroke:#000000;stroke-width:0.1661523;stroke-linecap:round;stroke-linejoin:round;stroke-miterlimit:3;stroke-dasharray:none;stroke-opacity:1"
       d="m 49.105299,131.28174 h 4.495649 v -4.41525 h -4.495649 z" />
    <path
       inkscape:connector-curvature="0"
       id="path662-9-5"
       style="fill:#cbcbcb;fill-opacity:1;fill-rule:evenodd;stroke:none;stroke-width:0.02215367"
       d="m 53.614016,131.27394 h 4.41516 v -4.41516 h -4.41516 z" />
    <path
       inkscape:connector-curvature="0"
       id="path664-5-5"
       style="fill:none;stroke:#000000;stroke-width:0.1661523;stroke-linecap:round;stroke-linejoin:round;stroke-miterlimit:3;stroke-dasharray:none;stroke-opacity:1"
       d="m 53.614016,131.27394 h 4.41516 v -4.41516 h -4.41516 z" />
    <path
       inkscape:connector-curvature="0"
       id="path666-1-4"
       style="fill:#cbcbcb;fill-opacity:1;fill-rule:evenodd;stroke:none;stroke-width:0.02215367"
       d="m 58.029245,131.27489 h 4.415248 v -4.41525 h -4.415248 z" />
    <path
       inkscape:connector-curvature="0"
       id="path668-5-7"
       style="fill:none;stroke:#000000;stroke-width:0.1661523;stroke-linecap:round;stroke-linejoin:round;stroke-miterlimit:3;stroke-dasharray:none;stroke-opacity:1"
       d="m 58.029245,131.27489 h 4.415248 v -4.41525 h -4.415248 z" />
    <path
       inkscape:connector-curvature="0"
       id="path670-6-1"
       style="fill:#cbcbcb;fill-opacity:1;fill-rule:evenodd;stroke:none;stroke-width:0.02215367"
       d="m 62.428742,131.27394 h 4.495644 v -4.41516 h -4.495644 z" />
    <path
       inkscape:connector-curvature="0"
       id="path672-4-0"
       style="fill:none;stroke:#000000;stroke-width:0.1661523;stroke-linecap:round;stroke-linejoin:round;stroke-miterlimit:3;stroke-dasharray:none;stroke-opacity:1"
       d="m 62.428742,131.27394 h 4.495644 v -4.41516 h -4.495644 z" />
    <path
       inkscape:connector-curvature="0"
       id="path674-0-0"
       style="fill:#cbcbcb;fill-opacity:1;fill-rule:evenodd;stroke:none;stroke-width:0.02215367"
       d="m 66.912202,131.27489 h 4.41516 v -4.41525 h -4.41516 z" />
    <path
       inkscape:connector-curvature="0"
       id="path676-0-7"
       style="fill:none;stroke:#000000;stroke-width:0.1661523;stroke-linecap:round;stroke-linejoin:round;stroke-miterlimit:3;stroke-dasharray:none;stroke-opacity:1"
       d="m 66.912202,131.27489 h 4.41516 v -4.41525 h -4.41516 z" />
    <path
       inkscape:connector-curvature="0"
       id="path678-6-8"
       style="fill:#cbcbcb;fill-opacity:1;fill-rule:evenodd;stroke:none;stroke-width:0.02215367"
       d="m 71.297964,131.27489 h 4.415248 v -4.41525 h -4.415248 z" />
    <path
       inkscape:connector-curvature="0"
       id="path680-3-6"
       style="fill:none;stroke:#000000;stroke-width:0.1661523;stroke-linecap:round;stroke-linejoin:round;stroke-miterlimit:3;stroke-dasharray:none;stroke-opacity:1"
       d="m 71.297964,131.27489 h 4.415248 v -4.41525 h -4.415248 z" />
    <path
       inkscape:connector-curvature="0"
       id="path682-1-3"
       style="fill:#cbcbcb;fill-opacity:1;fill-rule:evenodd;stroke:none;stroke-width:0.02215367"
       d="m 75.696797,131.27394 h 4.495644 v -4.41516 h -4.495644 z" />
    <path
       inkscape:connector-curvature="0"
       id="path684-7-2"
       style="fill:none;stroke:#000000;stroke-width:0.1661523;stroke-linecap:round;stroke-linejoin:round;stroke-miterlimit:3;stroke-dasharray:none;stroke-opacity:1"
       d="m 75.696797,131.27394 h 4.495644 v -4.41516 h -4.495644 z" />
    <path
       inkscape:connector-curvature="0"
       id="path686-2-7"
       style="fill:#cbcbcb;fill-opacity:1;fill-rule:evenodd;stroke:none;stroke-width:0.02215367"
       d="m 80.175825,131.27489 h 4.415251 v -4.41525 h -4.415251 z" />
    <path
       inkscape:connector-curvature="0"
       id="path688-6-9"
       style="fill:none;stroke:#000000;stroke-width:0.1661523;stroke-linecap:round;stroke-linejoin:round;stroke-miterlimit:3;stroke-dasharray:none;stroke-opacity:1"
       d="m 80.175825,131.27489 h 4.415251 v -4.41525 h -4.415251 z" />
    <path
       inkscape:connector-curvature="0"
       id="path690-3-6"
       style="fill:none;stroke:#000000;stroke-width:0.1661523;stroke-linecap:round;stroke-linejoin:round;stroke-miterlimit:3;stroke-dasharray:none;stroke-opacity:1"
       d="m 84.590165,131.28174 h 4.415251 v -4.41525 h -4.415251 z" />
    <text
       style="font-variant:normal;font-weight:normal;font-size:2.21536708px;font-family:Calibri;-inkscape-font-specification:Calibri;writing-mode:lr-tb;fill:#000000;fill-opacity:1;fill-rule:nonzero;stroke:none;stroke-width:0.2215367"
       id="text696-0-2"
       x="50.279224"
       y="129.73047">
      <tspan
         x="50.279224 51.484383 54.720997 55.926151 59.087467 60.292622 63.516014 64.721169"
         y="129.73047"
         sodipodi:role="line"
         id="tspan694-5-9"
         style="stroke-width:0.2215367">B7B6B5B4</tspan>
    </text>
    <text
       style="font-variant:normal;font-weight:normal;font-size:2.43690419px;font-family:Calibri;-inkscape-font-specification:Calibri;writing-mode:lr-tb;fill:#000000;fill-opacity:1;fill-rule:nonzero;stroke:none;stroke-width:0.2215367"
       id="text700-9-9"
       x="67.830215"
       y="129.79787">
      <tspan
         x="67.830215 69.155876"
         y="129.79787"
         sodipodi:role="line"
         id="tspan698-1-7"
         style="stroke-width:0.2215367">B3</tspan>
    </text>
    <text
       style="font-variant:normal;font-weight:normal;font-size:2.21536708px;font-family:Calibri;-inkscape-font-specification:Calibri;writing-mode:lr-tb;fill:#000000;fill-opacity:1;fill-rule:nonzero;stroke:none;stroke-width:0.2215367"
       id="text704-9-8"
       x="72.355278"
       y="129.73143">
      <tspan
         x="72.355278 73.560425 76.797035 78.002197 81.252129 82.457291 86.179108"
         y="129.73143"
         sodipodi:role="line"
         id="tspan702-1-1"
         style="stroke-width:0.2215367">B2B1B0A</tspan>
    </text>
    <text
       style="font-style:normal;font-variant:normal;font-weight:normal;font-stretch:normal;font-size:2.11666656px;font-family:Calibri;-inkscape-font-specification:'Calibri, Normal';font-variant-ligatures:normal;font-variant-caps:normal;font-variant-numeric:normal;font-feature-settings:normal;text-align:start;writing-mode:lr-tb;text-anchor:start;fill:#000000;fill-opacity:1;fill-rule:nonzero;stroke:none;stroke-width:0.2215367"
       id="text708-7-4"
       x="59.587952"
       y="119.94248">
      <tspan
         style="font-style:normal;font-variant:normal;font-weight:normal;font-stretch:normal;font-size:2.11666656px;font-family:Calibri;-inkscape-font-specification:'Calibri, Normal';font-variant-ligatures:normal;font-variant-caps:normal;font-variant-numeric:normal;font-feature-settings:normal;text-align:start;writing-mode:lr-tb;text-anchor:start;stroke-width:0.2215367"
         sodipodi:role="line"
         id="tspan15567-2"
         x="59.587952"
         y="119.94248">Com Code(0x08)</tspan>
    </text>
    <path
       inkscape:connector-curvature="0"
       id="path710-0-6"
       style="fill:none;stroke:#000000;stroke-width:0.1661523;stroke-linecap:round;stroke-linejoin:round;stroke-miterlimit:3;stroke-dasharray:none;stroke-opacity:1"
       d="m 44.693618,131.28174 h 4.415163 v -4.41525 h -4.415163 z" />
    <text
       style="font-variant:normal;font-weight:normal;font-size:2.21536708px;font-family:Calibri;-inkscape-font-specification:Calibri;writing-mode:lr-tb;fill:#000000;fill-opacity:1;fill-rule:nonzero;stroke:none;stroke-width:0.2215367"
       id="text716-92-2"
       x="46.241055"
       y="129.73047">
      <tspan
         x="46.241055"
         y="129.73047"
         id="tspan714-7-7"
         style="stroke-width:0.2215367">A</tspan>
    </text>
    <path
       inkscape:connector-curvature="0"
       id="path718-4-5"
       style="fill:none;stroke:#000000;stroke-width:0.1661523;stroke-linecap:round;stroke-linejoin:round;stroke-miterlimit:3;stroke-dasharray:none;stroke-opacity:1"
       d="m 6.9641461,133.29373 v 2.75373" />
    <path
       inkscape:connector-curvature="0"
       id="path720-6-6"
       style="fill:#000000;fill-opacity:1;fill-rule:evenodd;stroke:none;stroke-width:0.02215367"
       d="m 6.2388702,133.55422 0.7252759,-1.44857 0.7191301,1.43463 c -0.4552799,-0.22396 -0.9892181,-0.22308 -1.444406,0.003" />
    <text
       style="font-variant:normal;font-weight:normal;font-size:2.65846252px;font-family:Calibri;-inkscape-font-specification:Calibri;writing-mode:lr-tb;fill:#000000;fill-opacity:1;fill-rule:nonzero;stroke:none;stroke-width:0.2215367"
       id="text726-3-5"
       x="6.3418541"
       y="138.32324">
      <tspan
         x="6.3418541 7.5461531 8.6361504 10.175403 11.589671"
         y="138.32324"
         sodipodi:role="line"
         id="tspan724-4-2"
         style="stroke-width:0.2215367">START</tspan>
    </text>
    <path
       inkscape:connector-curvature="0"
       id="path728-8-1"
       style="fill:none;stroke:#000000;stroke-width:0.1661523;stroke-linecap:round;stroke-linejoin:round;stroke-miterlimit:3;stroke-dasharray:none;stroke-opacity:1"
       d="m 42.619372,133.1726 v 2.75361" />
    <path
       inkscape:connector-curvature="0"
       id="path730-4-2"
       style="fill:#000000;fill-opacity:1;fill-rule:evenodd;stroke:none;stroke-width:0.02215367"
       d="m 41.894948,133.43306 0.724424,-1.44863 0.719992,1.43469 c -0.455258,-0.22395 -0.990047,-0.22308 -1.444416,0.003" />
    <path
       inkscape:connector-curvature="0"
       id="path732-7-6"
       style="fill:none;stroke:#000000;stroke-width:0.1661523;stroke-linecap:round;stroke-linejoin:round;stroke-miterlimit:3;stroke-dasharray:none;stroke-opacity:1"
       d="m 47.167742,133.23326 v 2.75345" />
    <path
       inkscape:connector-curvature="0"
       id="path734-2-1"
       style="fill:#000000;fill-opacity:1;fill-rule:evenodd;stroke:none;stroke-width:0.02215367"
       d="m 46.443535,133.49356 0.724207,-1.44865 0.719109,1.43488 c -0.455039,-0.22412 -0.989164,-0.22325 -1.444197,0.003" />
    <text
       style="font-variant:normal;font-weight:normal;font-size:2.65846252px;font-family:Calibri;-inkscape-font-specification:Calibri;writing-mode:lr-tb;fill:#000000;fill-opacity:1;fill-rule:nonzero;stroke:none;stroke-width:0.2215367"
       id="text740-8-7"
       x="46.385494"
       y="138.32324">
      <tspan
         x="46.385494 47.90345 49.320404"
         y="138.32324"
         sodipodi:role="line"
         id="tspan738-1-4"
         style="stroke-width:0.2215367">ACK</tspan>
    </text>
    <text
       style="font-variant:normal;font-weight:normal;font-size:2.65846252px;font-family:Calibri;-inkscape-font-specification:Calibri;writing-mode:lr-tb;fill:#000000;fill-opacity:1;fill-rule:nonzero;stroke:none;stroke-width:0.2215367"
       id="text750-8-6"
       x="83.491341"
       y="138.8524">
      <tspan
         x="83.491341 85.009293 86.42627"
         y="138.8524"
         sodipodi:role="line"
         id="tspan748-2-1"
         style="stroke-width:0.2215367">ACK</tspan>
    </text>
    <path
       inkscape:connector-curvature="0"
       id="path886-3-7"
       style="fill:#cbcbcb;fill-opacity:1;fill-rule:evenodd;stroke:none;stroke-width:0.02215367"
       d="M 4.8084012,103.33356 H 9.2045311 V 98.937356 H 4.8084012 Z" />
    <path
       inkscape:connector-curvature="0"
       id="path888-6-6"
       style="fill:none;stroke:#000000;stroke-width:0.1661523;stroke-linecap:round;stroke-linejoin:round;stroke-miterlimit:3;stroke-dasharray:none;stroke-opacity:1"
       d="M 4.8084012,103.33356 H 9.2045311 V 98.937356 H 4.8084012 Z" />
    <path
       inkscape:connector-curvature="0"
       id="path890-7-1"
       style="fill:none;stroke:#000000;stroke-width:0.1661523;stroke-linecap:round;stroke-linejoin:round;stroke-miterlimit:3;stroke-dasharray:none;stroke-opacity:1"
       d="m 4.8084012,109.61279 h 4.3961299 v -4.39524 H 4.8084012 Z" />
    <text
       style="font-style:normal;font-variant:normal;font-weight:normal;font-stretch:normal;font-size:3.17499995px;font-family:Calibri;-inkscape-font-specification:'Calibri, Normal';font-variant-ligatures:normal;font-variant-caps:normal;font-variant-numeric:normal;font-feature-settings:normal;text-align:start;writing-mode:lr-tb;text-anchor:start;fill:#000000;fill-opacity:1;fill-rule:nonzero;stroke:none;stroke-width:0.2215367"
       id="text898-5-0"
       x="10.404547"
       y="108.30482">
      <tspan
         style="font-style:normal;font-variant:normal;font-weight:normal;font-stretch:normal;font-size:3.17499995px;font-family:Calibri;-inkscape-font-specification:'Calibri, Normal';font-variant-ligatures:normal;font-variant-caps:normal;font-variant-numeric:normal;font-feature-settings:normal;text-align:start;writing-mode:lr-tb;text-anchor:start;stroke-width:0.2215367"
         sodipodi:role="line"
         id="tspan9720-4-8"
         x="10.404547"
         y="108.30482">Target controls SDA line</tspan>
    </text>
    <path
       inkscape:connector-curvature="0"
       id="path900-9-7"
       style="fill:none;stroke:#000000;stroke-width:0.05316881;stroke-linecap:round;stroke-linejoin:round;stroke-miterlimit:3;stroke-dasharray:none;stroke-opacity:1"
       d="m 9.2114371,125.97793 v -0.76674 c -9.52e-4,-0.48295 0.190477,-0.94594 0.531444,-1.28775 0.3418089,-0.34192 0.8046209,-0.53308 1.2867289,-0.53395 h 11.810742 c 1.003761,0 1.818175,-0.81441 1.818175,-1.81815 7.94e-4,0.48295 0.192026,0.94508 0.533836,1.28691 0.341831,0.34094 0.804887,0.53211 1.287616,0.53124 h 11.934405 c 0.482065,8.7e-4 0.945075,0.19203 1.28602,0.53395 0.341831,0.34181 0.533019,0.8048 0.53213,1.28775 v 0.76674" />
    <path
       inkscape:connector-curvature="0"
       id="path902-4-7"
       style="fill:none;stroke:#000000;stroke-width:0.05316881;stroke-linecap:round;stroke-linejoin:round;stroke-miterlimit:3;stroke-dasharray:none;stroke-opacity:1"
       d="m 49.113057,125.97793 c 0,-0.68721 0.272711,-1.34497 0.758097,-1.83036 0.484722,-0.48556 1.14313,-0.75808 1.829451,-0.75808 H 64.13967 c 1.428689,8.7e-4 2.58644,-1.15708 2.588213,-2.58489 7.93e-4,1.42781 1.158859,2.58576 2.587548,2.58489 h 12.56534 c 0.686099,0 1.344729,0.27252 1.829229,0.75808 0.485608,0.48539 0.758097,1.14315 0.758097,1.83036" />
    <text
       style="font-variant:normal;font-weight:normal;font-size:2.65846252px;font-family:Calibri;-inkscape-font-specification:Calibri;writing-mode:lr-tb;fill:#000000;fill-opacity:1;fill-rule:nonzero;stroke:none;stroke-width:0.2215367"
       id="text912-0-3"
       x="36.010715"
       y="138.38797">
      <tspan
         x="36.010715 37.454258 38.480427 40.846458"
         y="138.38797"
         sodipodi:role="line"
         id="tspan910-1-5"
         style="stroke-width:0.2215367">R/W=0</tspan>
    </text>
    <path
       inkscape:connector-curvature="0"
       id="path914-3-8"
       style="fill:none;stroke:#000000;stroke-width:0.26584405;stroke-linecap:butt;stroke-linejoin:miter;stroke-miterlimit:3;stroke-dasharray:none;stroke-opacity:1"
       d="M 40.587438,136.36756 H 38.752892" />
    <text
       style="font-style:normal;font-variant:normal;font-weight:normal;font-stretch:normal;font-size:3.17499995px;font-family:Calibri;-inkscape-font-specification:'Calibri, Normal';font-variant-ligatures:normal;font-variant-caps:normal;font-variant-numeric:normal;font-feature-settings:normal;text-align:start;writing-mode:lr-tb;text-anchor:start;fill:#000000;fill-opacity:1;fill-rule:nonzero;stroke:none;stroke-width:0.2215367"
       id="text898-6-8-0"
       x="10.291197"
       y="102.32453">
      <tspan
         style="font-style:normal;font-variant:normal;font-weight:normal;font-stretch:normal;font-size:3.17499995px;font-family:Calibri;-inkscape-font-specification:'Calibri, Normal';font-variant-ligatures:normal;font-variant-caps:normal;font-variant-numeric:normal;font-feature-settings:normal;text-align:start;writing-mode:lr-tb;text-anchor:start;stroke-width:0.2215367"
         sodipodi:role="line"
         id="tspan9718-7-8"
         x="10.291197"
         y="102.32453">Controller controls SDA line</tspan>
    </text>
    <path
       inkscape:connector-curvature="0"
       id="path906-1-7-9-8-3"
       style="fill:none;stroke:#000000;stroke-width:0.05316881;stroke-linecap:round;stroke-linejoin:round;stroke-miterlimit:3;stroke-dasharray:none;stroke-opacity:1"
       d="m 49.20346,157.72007 c 0,-0.68721 0.272489,-1.34497 0.757208,-1.83036 0.485391,-0.48556 1.144021,-0.75808 1.830337,-0.75808 h 12.438843 c 1.428692,7.9e-4 2.586662,-1.15708 2.587551,-2.58489 7.94e-4,1.42781 1.159531,2.58576 2.587339,2.58489 H 81.97096 c 0.686321,0 1.34385,0.27252 1.82944,0.75808 0.485399,0.48539 0.7581,1.14315 0.7581,1.83036" />
    <text
       style="font-style:normal;font-variant:normal;font-weight:normal;font-stretch:normal;font-size:2.11666656px;font-family:Calibri;-inkscape-font-specification:'Calibri, Normal';font-variant-ligatures:normal;font-variant-caps:normal;font-variant-numeric:normal;font-feature-settings:normal;text-align:start;writing-mode:lr-tb;text-anchor:start;fill:#000000;fill-opacity:1;fill-rule:nonzero;stroke:none;stroke-width:0.2215367"
       id="text854-6-7-5-0"
       x="57.489304"
       y="151.79852">
      <tspan
         sodipodi:role="line"
         id="tspan18302"
         x="57.489304"
         y="151.79852">Buffer Mode LSB [0:7]</tspan>
    </text>
    <g
       id="g15412-8-2"
       transform="translate(-66.344178,-20.246221)">
      <path
         d="m 150.77981,183.27016 h 4.41525 v -4.41525 h -4.41525 z"
         style="fill:none;stroke:#000000;stroke-width:0.1661523;stroke-linecap:round;stroke-linejoin:round;stroke-miterlimit:3;stroke-dasharray:none;stroke-opacity:1"
         id="path646-9-7-6-4-0-7-6"
         inkscape:connector-curvature="0" />
      <text
         y="181.76242"
         x="152.347"
         id="text716-9-0-9-0-6"
         style="font-variant:normal;font-weight:normal;font-size:2.21536708px;font-family:Calibri;-inkscape-font-specification:Calibri;writing-mode:lr-tb;fill:#000000;fill-opacity:1;fill-rule:nonzero;stroke:none;stroke-width:0.2215367">
        <tspan
           style="stroke-width:0.2215367"
           id="tspan714-5-5-1-7-6"
           y="181.76242"
           x="152.347">A</tspan>
      </text>
      <g
         transform="translate(35.625135,7.6542016)"
         id="g15128-3-4-23">
        <path
           inkscape:connector-curvature="0"
           id="path742-1-0-1-2-5"
           style="fill:none;stroke:#000000;stroke-width:0.1661523;stroke-linecap:round;stroke-linejoin:round;stroke-miterlimit:3;stroke-dasharray:none;stroke-opacity:1"
           d="m 117.43789,177.62785 v 2.75373" />
        <text
           style="font-variant:normal;font-weight:normal;font-size:2.65846252px;font-family:Calibri;-inkscape-font-specification:Calibri;writing-mode:lr-tb;fill:#000000;fill-opacity:1;fill-rule:nonzero;stroke:none;stroke-width:0.2215367"
           id="text750-8-7-6-4-4"
           x="113.88909"
           y="182.65736">
          <tspan
             x="113.88909 115.40704 116.82401"
             y="182.65736"
             sodipodi:role="line"
             id="tspan748-2-5-4-3-1"
             style="stroke-width:0.2215367">ACK</tspan>
        </text>
        <path
           inkscape:connector-curvature="0"
           id="path744-4-3-9-6-3"
           style="fill:#000000;fill-opacity:1;fill-rule:evenodd;stroke:none;stroke-width:0.02215367"
           d="m 116.71657,177.97288 0.72443,-1.44856 0.71909,1.43462 c -0.45525,-0.22395 -0.98915,-0.22308 -1.44441,0.003" />
      </g>
    </g>
    <g
       id="g15609-8"
       transform="translate(1.9433043,-26.989001)">
      <path
         d="m 42.638176,190.01293 h 4.415161 v -4.41525 h -4.415161 z"
         style="fill:none;stroke:#000000;stroke-width:0.1661523;stroke-linecap:round;stroke-linejoin:round;stroke-miterlimit:3;stroke-dasharray:none;stroke-opacity:1"
         id="path710-0-1-9"
         inkscape:connector-curvature="0" />
      <text
         y="188.46165"
         x="44.185612"
         id="text716-92-7-6"
         style="font-variant:normal;font-weight:normal;font-size:2.21536708px;font-family:Calibri;-inkscape-font-specification:Calibri;writing-mode:lr-tb;fill:#000000;fill-opacity:1;fill-rule:nonzero;stroke:none;stroke-width:0.2215367">
        <tspan
           style="stroke-width:0.2215367"
           id="tspan714-7-8-5"
           y="188.46165"
           x="44.185612">A</tspan>
      </text>
      <path
         d="m 45.112298,191.96445 v 2.75345"
         style="fill:none;stroke:#000000;stroke-width:0.1661523;stroke-linecap:round;stroke-linejoin:round;stroke-miterlimit:3;stroke-dasharray:none;stroke-opacity:1"
         id="path732-7-0-7"
         inkscape:connector-curvature="0" />
      <path
         d="m 44.388093,192.22475 0.724205,-1.44865 0.719109,1.43489 c -0.455037,-0.22413 -0.989162,-0.22326 -1.444197,0.003"
         style="fill:#000000;fill-opacity:1;fill-rule:evenodd;stroke:none;stroke-width:0.02215367"
         id="path734-2-5-1"
         inkscape:connector-curvature="0" />
      <text
         y="197.05443"
         x="44.330051"
         id="text740-8-9-2"
         style="font-variant:normal;font-weight:normal;font-size:2.65846252px;font-family:Calibri;-inkscape-font-specification:Calibri;writing-mode:lr-tb;fill:#000000;fill-opacity:1;fill-rule:nonzero;stroke:none;stroke-width:0.2215367">
        <tspan
           style="stroke-width:0.2215367"
           id="tspan738-1-3-2"
           sodipodi:role="line"
           y="197.05443"
           x="44.330051 45.848003 47.264961">ACK</tspan>
      </text>
    </g>
    <path
       inkscape:connector-curvature="0"
       id="path906-1-7-9-8-7-5"
       style="fill:none;stroke:#000000;stroke-width:0.05316881;stroke-linecap:round;stroke-linejoin:round;stroke-miterlimit:3;stroke-dasharray:none;stroke-opacity:1"
       d="m 89.057697,157.72007 c 0,-0.68721 0.272489,-1.34497 0.757209,-1.83036 0.485394,-0.48556 1.144024,-0.75808 1.830345,-0.75808 h 12.438839 c 1.42868,7.9e-4 2.58665,-1.15708 2.58754,-2.58489 8e-4,1.42781 1.15954,2.58576 2.58736,2.58489 h 12.5662 c 0.68633,0 1.34386,0.27252 1.82944,0.75808 0.4854,0.48539 0.7581,1.14315 0.7581,1.83036" />
    <text
       style="font-style:normal;font-variant:normal;font-weight:normal;font-stretch:normal;font-size:2.11666656px;font-family:Calibri;-inkscape-font-specification:'Calibri, Normal';font-variant-ligatures:normal;font-variant-caps:normal;font-variant-numeric:normal;font-feature-settings:normal;text-align:start;writing-mode:lr-tb;text-anchor:start;fill:#000000;fill-opacity:1;fill-rule:nonzero;stroke:none;stroke-width:0.2215367"
       id="text854-6-7-5-7-3"
       x="96.345154"
       y="151.79852">
      <tspan
         sodipodi:role="line"
         id="tspan18304"
         x="96.345154"
         y="151.79852">Buffer Mode MSB [8:15]</tspan>
    </text>
    <g
       id="g15412-8-7-3"
       transform="translate(-26.489939,-20.246211)">
      <path
         d="m 150.77981,183.27016 h 4.41525 v -4.41525 h -4.41525 z"
         style="fill:none;stroke:#000000;stroke-width:0.1661523;stroke-linecap:round;stroke-linejoin:round;stroke-miterlimit:3;stroke-dasharray:none;stroke-opacity:1"
         id="path646-9-7-6-4-0-7-0-7"
         inkscape:connector-curvature="0" />
      <text
         y="181.76242"
         x="152.347"
         id="text716-9-0-9-0-2-3"
         style="font-variant:normal;font-weight:normal;font-size:2.21536708px;font-family:Calibri;-inkscape-font-specification:Calibri;writing-mode:lr-tb;fill:#000000;fill-opacity:1;fill-rule:nonzero;stroke:none;stroke-width:0.2215367">
        <tspan
           style="stroke-width:0.2215367"
           id="tspan714-5-5-1-7-7-0"
           y="181.76242"
           x="152.347">A</tspan>
      </text>
      <g
         transform="translate(35.625135,7.6542016)"
         id="g15128-3-4-2-6">
        <path
           inkscape:connector-curvature="0"
           id="path742-1-0-1-2-4-6"
           style="fill:none;stroke:#000000;stroke-width:0.1661523;stroke-linecap:round;stroke-linejoin:round;stroke-miterlimit:3;stroke-dasharray:none;stroke-opacity:1"
           d="m 117.43789,177.62785 v 2.75373" />
        <text
           style="font-variant:normal;font-weight:normal;font-size:2.65846252px;font-family:Calibri;-inkscape-font-specification:Calibri;writing-mode:lr-tb;fill:#000000;fill-opacity:1;fill-rule:nonzero;stroke:none;stroke-width:0.2215367"
           id="text750-8-7-6-4-7-8"
           x="113.88909"
           y="182.65736">
          <tspan
             x="113.88909 115.40704 116.82401"
             y="182.65736"
             sodipodi:role="line"
             id="tspan748-2-5-4-3-2-7"
             style="stroke-width:0.2215367">ACK</tspan>
        </text>
        <path
           inkscape:connector-curvature="0"
           id="path744-4-3-9-6-1-3"
           style="fill:#000000;fill-opacity:1;fill-rule:evenodd;stroke:none;stroke-width:0.02215367"
           d="m 116.71657,177.97288 0.72443,-1.44856 0.71909,1.43462 c -0.45525,-0.22395 -0.98915,-0.22308 -1.44441,0.003" />
      </g>
    </g>
    <path
       inkscape:connector-curvature="0"
       id="path742-1-0-1-2-2-2"
       style="fill:none;stroke:#000000;stroke-width:0.1661523;stroke-linecap:round;stroke-linejoin:round;stroke-miterlimit:3;stroke-dasharray:none;stroke-opacity:1"
       d="m 166.42732,165.03584 v 2.75374" />
    <path
       inkscape:connector-curvature="0"
       id="path744-4-3-9-6-7-3"
       style="fill:#000000;fill-opacity:1;fill-rule:evenodd;stroke:none;stroke-width:0.02215367"
       d="m 165.70601,165.38087 0.72443,-1.44855 0.71909,1.43461 c -0.45525,-0.22394 -0.98915,-0.22307 -1.44441,0.003" />
    <path
       inkscape:connector-curvature="0"
       id="path644-1-0-4-0"
       style="fill:#cbcbcb;fill-opacity:1;fill-rule:evenodd;stroke:none;stroke-width:0.02215367"
       d="m 168.55936,163.02395 h 4.41526 v -4.41525 h -4.41526 z" />
    <text
       style="font-style:normal;font-variant:normal;font-weight:normal;font-stretch:normal;font-size:2.21537375px;font-family:Calibri;-inkscape-font-specification:'Calibri, Normal';font-variant-ligatures:normal;font-variant-caps:normal;font-variant-numeric:normal;font-feature-settings:normal;text-align:start;writing-mode:lr-tb;text-anchor:start;fill:#000000;fill-opacity:1;fill-rule:nonzero;stroke:none;stroke-width:0.2215367"
       id="text850-4-91-7-7-0-3-0-1"
       x="170.15096"
       y="161.51297">
      <tspan
         style="stroke-width:0.2215367"
         sodipodi:role="line"
         id="tspan11990-3"
         x="170.15096"
         y="161.51297">P</tspan>
    </text>
    <path
       inkscape:connector-curvature="0"
       id="path646-9-7-4-2"
       style="fill:none;stroke:#000000;stroke-width:0.1661523;stroke-linecap:round;stroke-linejoin:round;stroke-miterlimit:3;stroke-dasharray:none;stroke-opacity:1"
       d="m 168.55936,163.02395 h 4.41526 v -4.41525 h -4.41526 z" />
    <path
       inkscape:connector-curvature="0"
       id="path876-0-0-5"
       style="fill:none;stroke:#000000;stroke-width:0.1661523;stroke-linecap:round;stroke-linejoin:round;stroke-miterlimit:3;stroke-dasharray:none;stroke-opacity:1"
       d="m 170.66064,165.03584 v 2.75373" />
    <path
       inkscape:connector-curvature="0"
       id="path878-1-5-4"
       style="fill:#000000;fill-opacity:1;fill-rule:evenodd;stroke:none;stroke-width:0.02215367"
       d="m 169.93556,165.29641 0.72508,-1.44862 0.71911,1.43555 c -0.45504,-0.22421 -0.98917,-0.22335 -1.44419,0.003" />
    <text
       style="font-style:normal;font-variant:normal;font-weight:normal;font-stretch:normal;font-size:2.65846276px;font-family:Calibri;-inkscape-font-specification:'Calibri, Normal';font-variant-ligatures:normal;font-variant-caps:normal;font-variant-numeric:normal;font-feature-settings:normal;text-align:start;writing-mode:lr-tb;text-anchor:start;fill:#000000;fill-opacity:1;fill-rule:nonzero;stroke:none;stroke-width:0.2215367"
       id="text884-6-1"
       x="170.65863"
       y="170.01492">
      <tspan
         style="stroke-width:0.2215367"
         y="170.01492"
         x="170.65863"
         sodipodi:role="line"
         id="tspan9825-6">STOP</tspan>
    </text>
    <path
       inkscape:connector-curvature="0"
       id="path644-1-0-3-1"
       style="fill:#cbcbcb;fill-opacity:1;fill-rule:evenodd;stroke:none;stroke-width:0.02215367"
       d="m 89.005416,131.28174 h 4.415253 v -4.41525 h -4.415253 z" />
    <path
       inkscape:connector-curvature="0"
       id="path646-9-7-6-2"
       style="fill:none;stroke:#000000;stroke-width:0.1661523;stroke-linecap:round;stroke-linejoin:round;stroke-miterlimit:3;stroke-dasharray:none;stroke-opacity:1"
       d="m 89.005416,131.28174 h 4.415253 v -4.41525 h -4.415253 z" />
    <text
       style="font-style:normal;font-variant:normal;font-weight:normal;font-stretch:normal;font-size:2.21537375px;font-family:Calibri;-inkscape-font-specification:'Calibri, Normal';font-variant-ligatures:normal;font-variant-caps:normal;font-variant-numeric:normal;font-feature-settings:normal;text-align:start;writing-mode:lr-tb;text-anchor:start;fill:#000000;fill-opacity:1;fill-rule:nonzero;stroke:none;stroke-width:0.2215367"
       id="text652-0-5-6-8"
       x="90.298973"
       y="129.774">
      <tspan
         style="stroke-width:0.2215367"
         sodipodi:role="line"
         id="tspan12016"
         x="90.298973"
         y="129.774">Sr</tspan>
    </text>
    <path
       inkscape:connector-curvature="0"
       id="path640-8-12"
       style="fill:#cbcbcb;fill-opacity:1;fill-rule:evenodd;stroke:none;stroke-width:0.02215367"
       d="m 124.36401,131.28174 h 4.49565 v -4.41516 h -4.49565 z" />
    <text
       style="font-style:normal;font-variant:normal;font-weight:normal;font-stretch:normal;font-size:2.21537375px;font-family:Calibri;-inkscape-font-specification:'Calibri, Normal';font-variant-ligatures:normal;font-variant-caps:normal;font-variant-numeric:normal;font-feature-settings:normal;text-align:start;writing-mode:lr-tb;text-anchor:start;fill:#000000;fill-opacity:1;fill-rule:nonzero;stroke:none;stroke-width:0.2215367"
       id="text652-5-92"
       x="126.01634"
       y="129.98772">
      <tspan
         style="stroke-width:0.2215367"
         sodipodi:role="line"
         id="tspan9216"
         x="126.01634"
         y="129.98772">1</tspan>
    </text>
    <path
       inkscape:connector-curvature="0"
       id="path612-1-06"
       style="fill:#cbcbcb;fill-opacity:1;fill-rule:evenodd;stroke:none;stroke-width:0.02215367"
       d="m 93.420669,131.28174 h 4.415244 v -4.41516 h -4.415244 z" />
    <path
       inkscape:connector-curvature="0"
       id="path614-5-8"
       style="fill:none;stroke:#000000;stroke-width:0.1661523;stroke-linecap:round;stroke-linejoin:round;stroke-miterlimit:3;stroke-dasharray:none;stroke-opacity:1"
       d="m 93.420669,131.28174 h 4.415244 v -4.41516 h -4.415244 z" />
    <path
       inkscape:connector-curvature="0"
       id="path616-6-30"
       style="fill:#cbcbcb;fill-opacity:1;fill-rule:evenodd;stroke:none;stroke-width:0.02215367"
       d="m 97.820323,131.28174 h 4.494767 v -4.41516 h -4.494767 z" />
    <path
       inkscape:connector-curvature="0"
       id="path618-3-7"
       style="fill:none;stroke:#000000;stroke-width:0.1661523;stroke-linecap:round;stroke-linejoin:round;stroke-miterlimit:3;stroke-dasharray:none;stroke-opacity:1"
       d="m 97.820323,131.28174 h 4.494767 v -4.41516 h -4.494767 z" />
    <path
       inkscape:connector-curvature="0"
       id="path620-2-6"
       style="fill:#cbcbcb;fill-opacity:1;fill-rule:evenodd;stroke:none;stroke-width:0.02215367"
       d="m 102.31069,131.28174 h 4.41524 v -4.41516 h -4.41524 z" />
    <path
       inkscape:connector-curvature="0"
       id="path622-5-9"
       style="fill:none;stroke:#000000;stroke-width:0.1661523;stroke-linecap:round;stroke-linejoin:round;stroke-miterlimit:3;stroke-dasharray:none;stroke-opacity:1"
       d="m 102.31069,131.28174 h 4.41524 v -4.41516 h -4.41524 z" />
    <path
       inkscape:connector-curvature="0"
       id="path624-7-7"
       style="fill:#cbcbcb;fill-opacity:1;fill-rule:evenodd;stroke:none;stroke-width:0.02215367"
       d="m 106.69643,131.28269 h 4.41525 v -4.41525 h -4.41525 z" />
    <path
       inkscape:connector-curvature="0"
       id="path626-7-4"
       style="fill:none;stroke:#000000;stroke-width:0.1661523;stroke-linecap:round;stroke-linejoin:round;stroke-miterlimit:3;stroke-dasharray:none;stroke-opacity:1"
       d="m 106.69643,131.28269 h 4.41525 v -4.41525 h -4.41525 z" />
    <path
       inkscape:connector-curvature="0"
       id="path628-2-8"
       style="fill:#cbcbcb;fill-opacity:1;fill-rule:evenodd;stroke:none;stroke-width:0.02215367"
       d="m 111.09531,131.28174 h 4.49565 v -4.41516 h -4.49565 z" />
    <path
       inkscape:connector-curvature="0"
       id="path630-2-6"
       style="fill:none;stroke:#000000;stroke-width:0.1661523;stroke-linecap:round;stroke-linejoin:round;stroke-miterlimit:3;stroke-dasharray:none;stroke-opacity:1"
       d="m 111.09531,131.28174 h 4.49565 v -4.41516 h -4.49565 z" />
    <path
       inkscape:connector-curvature="0"
       id="path632-2-29"
       style="fill:#cbcbcb;fill-opacity:1;fill-rule:evenodd;stroke:none;stroke-width:0.02215367"
       d="m 115.57874,131.28269 h 4.41525 v -4.41525 h -4.41525 z" />
    <path
       inkscape:connector-curvature="0"
       id="path634-1-8"
       style="fill:none;stroke:#000000;stroke-width:0.1661523;stroke-linecap:round;stroke-linejoin:round;stroke-miterlimit:3;stroke-dasharray:none;stroke-opacity:1"
       d="m 115.57874,131.28269 h 4.41525 v -4.41525 h -4.41525 z" />
    <g
       id="g9695-77"
       transform="translate(67.827258,-33.554851)">
      <path
         d="m 52.166735,164.83753 h 4.41525 v -4.41525 h -4.41525 z"
         style="fill:#cbcbcb;fill-opacity:1;fill-rule:evenodd;stroke:none;stroke-width:0.02215367"
         id="path636-4-51"
         inkscape:connector-curvature="0" />
      <path
         d="m 52.166735,164.83753 h 4.41525 v -4.41525 h -4.41525 z"
         style="fill:none;stroke:#000000;stroke-width:0.1661523;stroke-linecap:round;stroke-linejoin:round;stroke-miterlimit:3;stroke-dasharray:none;stroke-opacity:1"
         id="path638-4-0"
         inkscape:connector-curvature="0" />
    </g>
    <path
       inkscape:connector-curvature="0"
       id="path642-8-2"
       style="fill:none;stroke:#000000;stroke-width:0.1661523;stroke-linecap:round;stroke-linejoin:round;stroke-miterlimit:3;stroke-dasharray:none;stroke-opacity:1"
       d="m 124.36401,131.28174 h 4.49565 v -4.41516 h -4.49565 z" />
    <g
       transform="translate(71.928715,-43.004721)"
       id="g14393-6">
      <text
         y="172.77875"
         x="22.483543"
         id="text652-3-6"
         style="font-style:normal;font-variant:normal;font-weight:normal;font-stretch:normal;font-size:2.21537375px;font-family:Calibri;-inkscape-font-specification:'Calibri, Normal';font-variant-ligatures:normal;font-variant-caps:normal;font-variant-numeric:normal;font-feature-settings:normal;text-align:start;writing-mode:lr-tb;text-anchor:start;fill:#000000;fill-opacity:1;fill-rule:nonzero;stroke:none;stroke-width:0.2215367">
        <tspan
           y="172.77875"
           x="22.483543"
           id="tspan9134-09"
           sodipodi:role="line">A6</tspan>
      </text>
      <text
         y="172.77875"
         x="26.93354"
         id="text652-5-51"
         style="font-style:normal;font-variant:normal;font-weight:normal;font-stretch:normal;font-size:2.21537375px;font-family:Calibri;-inkscape-font-specification:'Calibri, Normal';font-variant-ligatures:normal;font-variant-caps:normal;font-variant-numeric:normal;font-feature-settings:normal;text-align:start;writing-mode:lr-tb;text-anchor:start;fill:#000000;fill-opacity:1;fill-rule:nonzero;stroke:none;stroke-width:0.2215367">
        <tspan
           y="172.77875"
           x="26.93354"
           id="tspan9186-6"
           sodipodi:role="line">A5</tspan>
      </text>
      <text
         y="172.79282"
         x="31.329453"
         id="text652-5-4-93"
         style="font-style:normal;font-variant:normal;font-weight:normal;font-stretch:normal;font-size:2.21537375px;font-family:Calibri;-inkscape-font-specification:'Calibri, Normal';font-variant-ligatures:normal;font-variant-caps:normal;font-variant-numeric:normal;font-feature-settings:normal;text-align:start;writing-mode:lr-tb;text-anchor:start;fill:#000000;fill-opacity:1;fill-rule:nonzero;stroke:none;stroke-width:0.2215367">
        <tspan
           y="172.79282"
           x="31.329453"
           id="tspan9188-9"
           sodipodi:role="line">A4</tspan>
      </text>
      <text
         y="172.77875"
         x="35.793514"
         id="text652-5-9-63"
         style="font-style:normal;font-variant:normal;font-weight:normal;font-stretch:normal;font-size:2.21537375px;font-family:Calibri;-inkscape-font-specification:'Calibri, Normal';font-variant-ligatures:normal;font-variant-caps:normal;font-variant-numeric:normal;font-feature-settings:normal;text-align:start;writing-mode:lr-tb;text-anchor:start;fill:#000000;fill-opacity:1;fill-rule:nonzero;stroke:none;stroke-width:0.2215367">
        <tspan
           y="172.77875"
           x="35.793514"
           id="tspan9190-4"
           sodipodi:role="line">A3</tspan>
      </text>
      <text
         y="172.79282"
         x="40.21701"
         id="text652-5-90-4"
         style="font-style:normal;font-variant:normal;font-weight:normal;font-stretch:normal;font-size:2.21537375px;font-family:Calibri;-inkscape-font-specification:'Calibri, Normal';font-variant-ligatures:normal;font-variant-caps:normal;font-variant-numeric:normal;font-feature-settings:normal;text-align:start;writing-mode:lr-tb;text-anchor:start;fill:#000000;fill-opacity:1;fill-rule:nonzero;stroke:none;stroke-width:0.2215367">
        <tspan
           y="172.79282"
           x="40.21701"
           id="tspan9192-2"
           sodipodi:role="line">A2</tspan>
      </text>
      <text
         y="172.79282"
         x="44.644287"
         id="text652-5-7-8"
         style="font-style:normal;font-variant:normal;font-weight:normal;font-stretch:normal;font-size:2.21537375px;font-family:Calibri;-inkscape-font-specification:'Calibri, Normal';font-variant-ligatures:normal;font-variant-caps:normal;font-variant-numeric:normal;font-feature-settings:normal;text-align:start;writing-mode:lr-tb;text-anchor:start;fill:#000000;fill-opacity:1;fill-rule:nonzero;stroke:none;stroke-width:0.2215367">
        <tspan
           y="172.79282"
           x="44.644287"
           id="tspan11922-4"
           sodipodi:role="line">A1</tspan>
      </text>
      <text
         y="172.77875"
         x="49.051559"
         id="text652-5-3-42"
         style="font-style:normal;font-variant:normal;font-weight:normal;font-stretch:normal;font-size:2.21537375px;font-family:Calibri;-inkscape-font-specification:'Calibri, Normal';font-variant-ligatures:normal;font-variant-caps:normal;font-variant-numeric:normal;font-feature-settings:normal;text-align:start;writing-mode:lr-tb;text-anchor:start;fill:#000000;fill-opacity:1;fill-rule:nonzero;stroke:none;stroke-width:0.2215367">
        <tspan
           y="172.77875"
           x="49.051559"
           id="tspan9206-4"
           sodipodi:role="line">A0</tspan>
      </text>
    </g>
    <path
       inkscape:connector-curvature="0"
       id="path640-8-12-6"
       style="fill:#cbcbcb;fill-opacity:1;fill-rule:evenodd;stroke:none;stroke-width:0.02215367"
       d="m 40.200655,131.27394 h 4.495649 v -4.41516 h -4.495649 z" />
    <text
       style="font-style:normal;font-variant:normal;font-weight:normal;font-stretch:normal;font-size:2.21537375px;font-family:Calibri;-inkscape-font-specification:'Calibri, Normal';font-variant-ligatures:normal;font-variant-caps:normal;font-variant-numeric:normal;font-feature-settings:normal;text-align:start;writing-mode:lr-tb;text-anchor:start;fill:#000000;fill-opacity:1;fill-rule:nonzero;stroke:none;stroke-width:0.2215367"
       id="text652-5-92-7"
       x="41.852982"
       y="129.97992">
      <tspan
         style="stroke-width:0.2215367"
         sodipodi:role="line"
         id="tspan9216-4"
         x="41.852982"
         y="129.97992">0</tspan>
    </text>
    <path
       inkscape:connector-curvature="0"
       id="path612-1-06-1"
       style="fill:#cbcbcb;fill-opacity:1;fill-rule:evenodd;stroke:none;stroke-width:0.02215367"
       d="m 9.2573121,131.27394 h 4.4152409 v -4.41516 H 9.2573121 Z" />
    <path
       inkscape:connector-curvature="0"
       id="path614-5-8-8"
       style="fill:none;stroke:#000000;stroke-width:0.1661523;stroke-linecap:round;stroke-linejoin:round;stroke-miterlimit:3;stroke-dasharray:none;stroke-opacity:1"
       d="m 9.2573121,131.27394 h 4.4152409 v -4.41516 H 9.2573121 Z" />
    <path
       inkscape:connector-curvature="0"
       id="path616-6-30-0"
       style="fill:#cbcbcb;fill-opacity:1;fill-rule:evenodd;stroke:none;stroke-width:0.02215367"
       d="m 13.656962,131.27394 h 4.494781 v -4.41516 h -4.494781 z" />
    <path
       inkscape:connector-curvature="0"
       id="path618-3-7-8"
       style="fill:none;stroke:#000000;stroke-width:0.1661523;stroke-linecap:round;stroke-linejoin:round;stroke-miterlimit:3;stroke-dasharray:none;stroke-opacity:1"
       d="m 13.656962,131.27394 h 4.494781 v -4.41516 h -4.494781 z" />
    <path
       inkscape:connector-curvature="0"
       id="path620-2-6-2"
       style="fill:#cbcbcb;fill-opacity:1;fill-rule:evenodd;stroke:none;stroke-width:0.02215367"
       d="m 18.147343,131.27394 h 4.415239 v -4.41516 h -4.415239 z" />
    <path
       inkscape:connector-curvature="0"
       id="path622-5-9-7"
       style="fill:none;stroke:#000000;stroke-width:0.1661523;stroke-linecap:round;stroke-linejoin:round;stroke-miterlimit:3;stroke-dasharray:none;stroke-opacity:1"
       d="m 18.147343,131.27394 h 4.415239 v -4.41516 h -4.415239 z" />
    <path
       inkscape:connector-curvature="0"
       id="path624-7-7-6"
       style="fill:#cbcbcb;fill-opacity:1;fill-rule:evenodd;stroke:none;stroke-width:0.02215367"
       d="m 22.533072,131.27489 h 4.415252 v -4.41525 h -4.415252 z" />
    <path
       inkscape:connector-curvature="0"
       id="path626-7-4-2"
       style="fill:none;stroke:#000000;stroke-width:0.1661523;stroke-linecap:round;stroke-linejoin:round;stroke-miterlimit:3;stroke-dasharray:none;stroke-opacity:1"
       d="m 22.533072,131.27489 h 4.415252 v -4.41525 h -4.415252 z" />
    <path
       inkscape:connector-curvature="0"
       id="path628-2-8-4"
       style="fill:#cbcbcb;fill-opacity:1;fill-rule:evenodd;stroke:none;stroke-width:0.02215367"
       d="m 26.931951,131.27394 h 4.495652 v -4.41516 h -4.495652 z" />
    <path
       inkscape:connector-curvature="0"
       id="path630-2-6-9"
       style="fill:none;stroke:#000000;stroke-width:0.1661523;stroke-linecap:round;stroke-linejoin:round;stroke-miterlimit:3;stroke-dasharray:none;stroke-opacity:1"
       d="m 26.931951,131.27394 h 4.495652 v -4.41516 h -4.495652 z" />
    <path
       inkscape:connector-curvature="0"
       id="path632-2-29-1"
       style="fill:#cbcbcb;fill-opacity:1;fill-rule:evenodd;stroke:none;stroke-width:0.02215367"
       d="m 31.415392,131.27489 h 4.415251 v -4.41525 h -4.415251 z" />
    <path
       inkscape:connector-curvature="0"
       id="path634-1-8-8"
       style="fill:none;stroke:#000000;stroke-width:0.1661523;stroke-linecap:round;stroke-linejoin:round;stroke-miterlimit:3;stroke-dasharray:none;stroke-opacity:1"
       d="m 31.415392,131.27489 h 4.415251 v -4.41525 h -4.415251 z" />
    <g
       id="g9695-77-8"
       transform="translate(-16.336098,-33.562661)">
      <path
         d="m 52.166735,164.83753 h 4.41525 v -4.41525 h -4.41525 z"
         style="fill:#cbcbcb;fill-opacity:1;fill-rule:evenodd;stroke:none;stroke-width:0.02215367"
         id="path636-4-51-1"
         inkscape:connector-curvature="0" />
      <path
         d="m 52.166735,164.83753 h 4.41525 v -4.41525 h -4.41525 z"
         style="fill:none;stroke:#000000;stroke-width:0.1661523;stroke-linecap:round;stroke-linejoin:round;stroke-miterlimit:3;stroke-dasharray:none;stroke-opacity:1"
         id="path638-4-0-4"
         inkscape:connector-curvature="0" />
    </g>
    <path
       inkscape:connector-curvature="0"
       id="path642-8-2-8"
       style="fill:none;stroke:#000000;stroke-width:0.1661523;stroke-linecap:round;stroke-linejoin:round;stroke-miterlimit:3;stroke-dasharray:none;stroke-opacity:1"
       d="m 40.200655,131.27394 h 4.495649 v -4.41516 h -4.495649 z" />
    <g
       transform="translate(-12.234639,-43.012531)"
       id="g14393-6-4">
      <text
         y="172.77875"
         x="22.483543"
         id="text652-3-6-1"
         style="font-style:normal;font-variant:normal;font-weight:normal;font-stretch:normal;font-size:2.21537375px;font-family:Calibri;-inkscape-font-specification:'Calibri, Normal';font-variant-ligatures:normal;font-variant-caps:normal;font-variant-numeric:normal;font-feature-settings:normal;text-align:start;writing-mode:lr-tb;text-anchor:start;fill:#000000;fill-opacity:1;fill-rule:nonzero;stroke:none;stroke-width:0.2215367">
        <tspan
           y="172.77875"
           x="22.483543"
           id="tspan9134-09-3"
           sodipodi:role="line">A6</tspan>
      </text>
      <text
         y="172.77875"
         x="26.93354"
         id="text652-5-51-0"
         style="font-style:normal;font-variant:normal;font-weight:normal;font-stretch:normal;font-size:2.21537375px;font-family:Calibri;-inkscape-font-specification:'Calibri, Normal';font-variant-ligatures:normal;font-variant-caps:normal;font-variant-numeric:normal;font-feature-settings:normal;text-align:start;writing-mode:lr-tb;text-anchor:start;fill:#000000;fill-opacity:1;fill-rule:nonzero;stroke:none;stroke-width:0.2215367">
        <tspan
           y="172.77875"
           x="26.93354"
           id="tspan9186-6-9"
           sodipodi:role="line">A5</tspan>
      </text>
      <text
         y="172.79282"
         x="31.329453"
         id="text652-5-4-93-3"
         style="font-style:normal;font-variant:normal;font-weight:normal;font-stretch:normal;font-size:2.21537375px;font-family:Calibri;-inkscape-font-specification:'Calibri, Normal';font-variant-ligatures:normal;font-variant-caps:normal;font-variant-numeric:normal;font-feature-settings:normal;text-align:start;writing-mode:lr-tb;text-anchor:start;fill:#000000;fill-opacity:1;fill-rule:nonzero;stroke:none;stroke-width:0.2215367">
        <tspan
           y="172.79282"
           x="31.329453"
           id="tspan9188-9-6"
           sodipodi:role="line">A4</tspan>
      </text>
      <text
         y="172.77875"
         x="35.793514"
         id="text652-5-9-63-7"
         style="font-style:normal;font-variant:normal;font-weight:normal;font-stretch:normal;font-size:2.21537375px;font-family:Calibri;-inkscape-font-specification:'Calibri, Normal';font-variant-ligatures:normal;font-variant-caps:normal;font-variant-numeric:normal;font-feature-settings:normal;text-align:start;writing-mode:lr-tb;text-anchor:start;fill:#000000;fill-opacity:1;fill-rule:nonzero;stroke:none;stroke-width:0.2215367">
        <tspan
           y="172.77875"
           x="35.793514"
           id="tspan9190-4-8"
           sodipodi:role="line">A3</tspan>
      </text>
      <text
         y="172.79282"
         x="40.21701"
         id="text652-5-90-4-8"
         style="font-style:normal;font-variant:normal;font-weight:normal;font-stretch:normal;font-size:2.21537375px;font-family:Calibri;-inkscape-font-specification:'Calibri, Normal';font-variant-ligatures:normal;font-variant-caps:normal;font-variant-numeric:normal;font-feature-settings:normal;text-align:start;writing-mode:lr-tb;text-anchor:start;fill:#000000;fill-opacity:1;fill-rule:nonzero;stroke:none;stroke-width:0.2215367">
        <tspan
           y="172.79282"
           x="40.21701"
           id="tspan9192-2-2"
           sodipodi:role="line">A2</tspan>
      </text>
      <text
         y="172.79282"
         x="44.644287"
         id="text652-5-7-8-3"
         style="font-style:normal;font-variant:normal;font-weight:normal;font-stretch:normal;font-size:2.21537375px;font-family:Calibri;-inkscape-font-specification:'Calibri, Normal';font-variant-ligatures:normal;font-variant-caps:normal;font-variant-numeric:normal;font-feature-settings:normal;text-align:start;writing-mode:lr-tb;text-anchor:start;fill:#000000;fill-opacity:1;fill-rule:nonzero;stroke:none;stroke-width:0.2215367">
        <tspan
           y="172.79282"
           x="44.644287"
           id="tspan11922-4-7"
           sodipodi:role="line">A1</tspan>
      </text>
      <text
         y="172.77875"
         x="49.051559"
         id="text652-5-3-42-8"
         style="font-style:normal;font-variant:normal;font-weight:normal;font-stretch:normal;font-size:2.21537375px;font-family:Calibri;-inkscape-font-specification:'Calibri, Normal';font-variant-ligatures:normal;font-variant-caps:normal;font-variant-numeric:normal;font-feature-settings:normal;text-align:start;writing-mode:lr-tb;text-anchor:start;fill:#000000;fill-opacity:1;fill-rule:nonzero;stroke:none;stroke-width:0.2215367">
        <tspan
           y="172.77875"
           x="49.051559"
           id="tspan9206-4-8"
           sodipodi:role="line">A0</tspan>
      </text>
    </g>
    <path
       inkscape:connector-curvature="0"
       id="path644-1-0-3"
       style="fill:#cbcbcb;fill-opacity:1;fill-rule:evenodd;stroke:none;stroke-width:0.02215367"
       d="m 4.8420621,131.27394 h 4.41525 v -4.41525 h -4.41525 z" />
    <path
       inkscape:connector-curvature="0"
       id="path646-9-7-6"
       style="fill:none;stroke:#000000;stroke-width:0.1661523;stroke-linecap:round;stroke-linejoin:round;stroke-miterlimit:3;stroke-dasharray:none;stroke-opacity:1"
       d="m 4.8420621,131.27394 h 4.41525 v -4.41525 h -4.41525 z" />
    <text
       style="font-style:normal;font-variant:normal;font-weight:normal;font-stretch:normal;font-size:2.21537375px;font-family:Calibri;-inkscape-font-specification:'Calibri, Normal';font-variant-ligatures:normal;font-variant-caps:normal;font-variant-numeric:normal;font-feature-settings:normal;text-align:start;writing-mode:lr-tb;text-anchor:start;fill:#000000;fill-opacity:1;fill-rule:nonzero;stroke:none;stroke-width:0.2215367"
       id="text652-0-5-6"
       x="6.5423584"
       y="129.76619">
      <tspan
         style="stroke-width:0.2215367"
         sodipodi:role="line"
         id="tspan9114-7-6"
         x="6.5423584"
         y="129.76619">S</tspan>
    </text>
    <text
       style="font-style:normal;font-variant:normal;font-weight:normal;font-stretch:normal;font-size:2.11666656px;font-family:Calibri;-inkscape-font-specification:'Calibri, Normal';font-variant-ligatures:normal;font-variant-caps:normal;font-variant-numeric:normal;font-feature-settings:normal;text-align:start;writing-mode:lr-tb;text-anchor:start;fill:#000000;fill-opacity:1;fill-rule:nonzero;stroke:none;stroke-width:0.2215367"
       id="text656-2-6-4"
       x="95.10302"
       y="119.92181">
      <tspan
         sodipodi:role="line"
         id="tspan9241"
         x="95.10302"
         y="119.92181">Device (Target) Address2 (7 bits)</tspan>
    </text>
    <path
       inkscape:connector-curvature="0"
       id="path900-9-7-2"
       style="fill:none;stroke:#000000;stroke-width:0.05316881;stroke-linecap:round;stroke-linejoin:round;stroke-miterlimit:3;stroke-dasharray:none;stroke-opacity:1"
       d="m 93.463939,125.97793 v -0.76674 c -0.0011,-0.48295 0.190468,-0.94594 0.531439,-1.28775 0.34181,-0.34192 0.80463,-0.53308 1.28674,-0.53395 h 11.810792 c 1.00376,0 1.81819,-0.81441 1.81819,-1.81815 7.9e-4,0.48295 0.19202,0.94508 0.53383,1.28691 0.34183,0.34094 0.80488,0.53211 1.28762,0.53124 h 11.9344 c 0.48207,8.7e-4 0.94508,0.19203 1.28602,0.53395 0.34183,0.34181 0.53301,0.8048 0.53214,1.28775 v 0.76674" />
    <path
       inkscape:connector-curvature="0"
       id="path598-8"
       style="fill:none;stroke:#000000;stroke-width:0.1661523;stroke-linecap:round;stroke-linejoin:round;stroke-miterlimit:3;stroke-dasharray:none;stroke-opacity:1"
       d="m 91.122082,132.99812 v 2.87841" />
    <path
       inkscape:connector-curvature="0"
       id="path600-9"
       style="fill:#000000;fill-opacity:1;fill-rule:evenodd;stroke:none;stroke-width:0.02215367"
       d="m 90.397656,133.25956 0.724426,-1.44866 0.719109,1.43488 c -0.455261,-0.22422 -0.989164,-0.22336 -1.444421,0.002" />
    <path
       inkscape:connector-curvature="0"
       id="path602-8"
       style="fill:#ff0000;fill-opacity:1;fill-rule:evenodd;stroke:none;stroke-width:0.02215367"
       d="M 89.952143,138.95277 H 108.8545 v -3.26585 H 89.952143 Z" />
    <path
       inkscape:connector-curvature="0"
       id="path604-2"
       style="fill:none;stroke:#000000;stroke-width:0.1661523;stroke-linecap:round;stroke-linejoin:round;stroke-miterlimit:3;stroke-dasharray:none;stroke-opacity:1"
       d="M 89.952143,138.95277 H 108.8545 v -3.26585 H 89.952143 Z" />
    <text
       style="font-variant:normal;font-weight:normal;font-size:2.65846252px;font-family:Calibri;-inkscape-font-specification:Calibri;writing-mode:lr-tb;fill:#ffffff;fill-opacity:1;fill-rule:nonzero;stroke:none;stroke-width:0.2215367"
       id="text798-0"
       x="90.560257"
       y="138.02451">
      <tspan
         x="90.560257 91.95594 93.279854 94.675545 95.999466 97.248924 98.115631 99.439537 100.83524 101.43605 102.643 103.73299 105.27225 106.6892"
         y="138.02451"
         sodipodi:role="line"
         id="tspan796-3"
         style="stroke-width:0.2215367">Repeated START</tspan>
    </text>
    <path
       inkscape:connector-curvature="0"
       id="path732-7-6-5"
       style="fill:none;stroke:#000000;stroke-width:0.1661523;stroke-linecap:round;stroke-linejoin:round;stroke-miterlimit:3;stroke-dasharray:none;stroke-opacity:1"
       d="m 86.742728,133.03883 v 2.75345" />
    <path
       inkscape:connector-curvature="0"
       id="path734-2-1-1"
       style="fill:#000000;fill-opacity:1;fill-rule:evenodd;stroke:none;stroke-width:0.02215367"
       d="m 86.018524,133.29913 0.724204,-1.44865 0.719109,1.43489 c -0.455036,-0.22413 -0.989161,-0.22326 -1.444197,0.003" />
    <g
       id="g19499"
       transform="translate(44.527433,76.507187)">
      <path
         d="m 84.332223,54.77455 h 4.415161 v -4.415251 h -4.415161 z"
         style="fill:none;stroke:#000000;stroke-width:0.1661523;stroke-linecap:round;stroke-linejoin:round;stroke-miterlimit:3;stroke-dasharray:none;stroke-opacity:1"
         id="path710-0-6-1"
         inkscape:connector-curvature="0" />
      <text
         y="53.223278"
         x="85.879662"
         id="text716-92-2-5"
         style="font-variant:normal;font-weight:normal;font-size:2.21536708px;font-family:Calibri;-inkscape-font-specification:Calibri;writing-mode:lr-tb;fill:#000000;fill-opacity:1;fill-rule:nonzero;stroke:none;stroke-width:0.2215367">
        <tspan
           style="stroke-width:0.2215367"
           id="tspan714-7-7-1"
           y="53.223278"
           x="85.879662">A</tspan>
      </text>
      <path
         d="m 86.806345,56.726069 v 2.75345"
         style="fill:none;stroke:#000000;stroke-width:0.1661523;stroke-linecap:round;stroke-linejoin:round;stroke-miterlimit:3;stroke-dasharray:none;stroke-opacity:1"
         id="path732-7-6-1"
         inkscape:connector-curvature="0" />
      <path
         d="m 86.08214,56.986368 0.724205,-1.448649 0.719108,1.434888 c -0.455036,-0.224128 -0.989161,-0.223258 -1.444196,0.003"
         style="fill:#000000;fill-opacity:1;fill-rule:evenodd;stroke:none;stroke-width:0.02215367"
         id="path734-2-1-7"
         inkscape:connector-curvature="0" />
      <text
         y="61.816051"
         x="86.024101"
         id="text740-8-7-56"
         style="font-variant:normal;font-weight:normal;font-size:2.65846252px;font-family:Calibri;-inkscape-font-specification:Calibri;writing-mode:lr-tb;fill:#000000;fill-opacity:1;fill-rule:nonzero;stroke:none;stroke-width:0.2215367">
        <tspan
           style="stroke-width:0.2215367"
           id="tspan738-1-4-3"
           sodipodi:role="line"
           y="61.816051"
           x="86.024101 87.542053 88.959007">ACK</tspan>
      </text>
    </g>
    <g
       transform="translate(53.601345,-144.18141)"
       id="g13924">
      <text
         y="273.95218"
         x="80.676598"
         id="text850-4-92-2-5-4"
         style="font-style:normal;font-variant:normal;font-weight:normal;font-stretch:normal;font-size:2.21537375px;font-family:Calibri;-inkscape-font-specification:'Calibri, Normal';font-variant-ligatures:normal;font-variant-caps:normal;font-variant-numeric:normal;font-feature-settings:normal;text-align:start;writing-mode:lr-tb;text-anchor:start;fill:#000000;fill-opacity:1;fill-rule:nonzero;stroke:none;stroke-width:0.2215367">
        <tspan
           y="273.95218"
           x="80.676598"
           id="tspan11886"
           sodipodi:role="line">R7</tspan>
      </text>
      <text
         y="273.95486"
         x="85.095238"
         id="text850-4-6-4-4-6-6"
         style="font-style:normal;font-variant:normal;font-weight:normal;font-stretch:normal;font-size:2.21537375px;font-family:Calibri;-inkscape-font-specification:'Calibri, Normal';font-variant-ligatures:normal;font-variant-caps:normal;font-variant-numeric:normal;font-feature-settings:normal;text-align:start;writing-mode:lr-tb;text-anchor:start;fill:#000000;fill-opacity:1;fill-rule:nonzero;stroke:none;stroke-width:0.2215367">
        <tspan
           y="273.95486"
           x="85.095238"
           id="tspan11888"
           sodipodi:role="line">R6</tspan>
      </text>
      <text
         y="273.94513"
         x="89.542557"
         id="text850-4-4-1-4-6-2"
         style="font-style:normal;font-variant:normal;font-weight:normal;font-stretch:normal;font-size:2.21537375px;font-family:Calibri;-inkscape-font-specification:'Calibri, Normal';font-variant-ligatures:normal;font-variant-caps:normal;font-variant-numeric:normal;font-feature-settings:normal;text-align:start;writing-mode:lr-tb;text-anchor:start;fill:#000000;fill-opacity:1;fill-rule:nonzero;stroke:none;stroke-width:0.2215367">
        <tspan
           y="273.94513"
           x="89.542557"
           id="tspan11890"
           sodipodi:role="line">R5</tspan>
      </text>
      <text
         y="273.95541"
         x="93.935776"
         id="text850-4-9-9-2-3-9"
         style="font-style:normal;font-variant:normal;font-weight:normal;font-stretch:normal;font-size:2.21537375px;font-family:Calibri;-inkscape-font-specification:'Calibri, Normal';font-variant-ligatures:normal;font-variant-caps:normal;font-variant-numeric:normal;font-feature-settings:normal;text-align:start;writing-mode:lr-tb;text-anchor:start;fill:#000000;fill-opacity:1;fill-rule:nonzero;stroke:none;stroke-width:0.2215367">
        <tspan
           y="273.95541"
           x="93.935776"
           id="tspan11892"
           sodipodi:role="line">R4</tspan>
      </text>
      <text
         y="273.95541"
         x="98.397156"
         id="text850-4-2-3-1-6-8"
         style="font-style:normal;font-variant:normal;font-weight:normal;font-stretch:normal;font-size:2.21537375px;font-family:Calibri;-inkscape-font-specification:'Calibri, Normal';font-variant-ligatures:normal;font-variant-caps:normal;font-variant-numeric:normal;font-feature-settings:normal;text-align:start;writing-mode:lr-tb;text-anchor:start;fill:#000000;fill-opacity:1;fill-rule:nonzero;stroke:none;stroke-width:0.2215367">
        <tspan
           y="273.95541"
           x="98.397156"
           id="tspan11894"
           sodipodi:role="line">R3</tspan>
      </text>
      <text
         y="273.96243"
         x="102.81796"
         id="text850-4-5-8-3-8-7"
         style="font-style:normal;font-variant:normal;font-weight:normal;font-stretch:normal;font-size:2.21537375px;font-family:Calibri;-inkscape-font-specification:'Calibri, Normal';font-variant-ligatures:normal;font-variant-caps:normal;font-variant-numeric:normal;font-feature-settings:normal;text-align:start;writing-mode:lr-tb;text-anchor:start;fill:#000000;fill-opacity:1;fill-rule:nonzero;stroke:none;stroke-width:0.2215367">
        <tspan
           y="273.96243"
           x="102.81796"
           id="tspan11896"
           sodipodi:role="line">R2</tspan>
      </text>
      <text
         y="273.95703"
         x="107.24256"
         id="text850-4-91-9-1-5-6"
         style="font-style:normal;font-variant:normal;font-weight:normal;font-stretch:normal;font-size:2.21537375px;font-family:Calibri;-inkscape-font-specification:'Calibri, Normal';font-variant-ligatures:normal;font-variant-caps:normal;font-variant-numeric:normal;font-feature-settings:normal;text-align:start;writing-mode:lr-tb;text-anchor:start;fill:#000000;fill-opacity:1;fill-rule:nonzero;stroke:none;stroke-width:0.2215367">
        <tspan
           y="273.95703"
           x="107.24256"
           id="tspan11898"
           sodipodi:role="line">R1</tspan>
      </text>
      <text
         y="273.95541"
         x="111.64715"
         id="text850-4-0-0-6-5-0"
         style="font-style:normal;font-variant:normal;font-weight:normal;font-stretch:normal;font-size:2.21537375px;font-family:Calibri;-inkscape-font-specification:'Calibri, Normal';font-variant-ligatures:normal;font-variant-caps:normal;font-variant-numeric:normal;font-feature-settings:normal;text-align:start;writing-mode:lr-tb;text-anchor:start;fill:#000000;fill-opacity:1;fill-rule:nonzero;stroke:none;stroke-width:0.2215367">
        <tspan
           y="273.95541"
           x="111.64715"
           id="tspan11900"
           sodipodi:role="line">R0</tspan>
      </text>
    </g>
    <path
       inkscape:connector-curvature="0"
       id="path614-5-26-6"
       style="fill:none;stroke:#000000;stroke-width:0.1661523;stroke-linecap:round;stroke-linejoin:round;stroke-miterlimit:3;stroke-dasharray:none;stroke-opacity:1"
       d="m 133.27482,131.28174 h 4.41525 v -4.41516 h -4.41525 z" />
    <path
       inkscape:connector-curvature="0"
       id="path618-3-8-2"
       style="fill:none;stroke:#000000;stroke-width:0.1661523;stroke-linecap:round;stroke-linejoin:round;stroke-miterlimit:3;stroke-dasharray:none;stroke-opacity:1"
       d="m 137.67447,131.28174 h 4.49479 v -4.41516 h -4.49479 z" />
    <path
       inkscape:connector-curvature="0"
       id="path622-5-8-9"
       style="fill:none;stroke:#000000;stroke-width:0.1661523;stroke-linecap:round;stroke-linejoin:round;stroke-miterlimit:3;stroke-dasharray:none;stroke-opacity:1"
       d="m 142.16485,131.28174 h 4.41525 v -4.41516 h -4.41525 z" />
    <path
       inkscape:connector-curvature="0"
       id="path626-7-5-4"
       style="fill:none;stroke:#000000;stroke-width:0.1661523;stroke-linecap:round;stroke-linejoin:round;stroke-miterlimit:3;stroke-dasharray:none;stroke-opacity:1"
       d="m 146.55059,131.28269 h 4.41525 v -4.41525 h -4.41525 z" />
    <path
       inkscape:connector-curvature="0"
       id="path630-2-28-3"
       style="fill:none;stroke:#000000;stroke-width:0.1661523;stroke-linecap:round;stroke-linejoin:round;stroke-miterlimit:3;stroke-dasharray:none;stroke-opacity:1"
       d="m 150.94946,131.28174 h 4.49565 v -4.41516 h -4.49565 z" />
    <path
       inkscape:connector-curvature="0"
       id="path634-1-1-0"
       style="fill:none;stroke:#000000;stroke-width:0.1661523;stroke-linecap:round;stroke-linejoin:round;stroke-miterlimit:3;stroke-dasharray:none;stroke-opacity:1"
       d="m 155.4329,131.28269 h 4.41526 v -4.41525 h -4.41526 z" />
    <path
       inkscape:connector-curvature="0"
       id="path638-4-5-0"
       style="fill:none;stroke:#000000;stroke-width:0.1661523;stroke-linecap:round;stroke-linejoin:round;stroke-miterlimit:3;stroke-dasharray:none;stroke-opacity:1"
       d="m 159.84816,131.28268 h 4.41524 v -4.41525 h -4.41524 z" />
    <path
       inkscape:connector-curvature="0"
       id="path642-8-77-5"
       style="fill:none;stroke:#000000;stroke-width:0.1661523;stroke-linecap:round;stroke-linejoin:round;stroke-miterlimit:3;stroke-dasharray:none;stroke-opacity:1"
       d="m 164.21815,131.28174 h 4.49565 v -4.41516 h -4.49565 z" />
    <path
       inkscape:connector-curvature="0"
       id="path906-1-7-6-5"
       style="fill:none;stroke:#000000;stroke-width:0.05316881;stroke-linecap:round;stroke-linejoin:round;stroke-miterlimit:3;stroke-dasharray:none;stroke-opacity:1"
       d="m 132.95183,125.97793 c 0,-0.68721 0.27249,-1.34497 0.7572,-1.83036 0.4854,-0.48556 1.14402,-0.75808 1.83034,-0.75808 h 12.43884 c 1.42869,8.7e-4 2.58666,-1.15708 2.58754,-2.5849 8e-4,1.42782 1.15954,2.58577 2.58735,2.5849 h 12.56623 c 0.68631,0 1.34384,0.27252 1.82943,0.75808 0.48541,0.48539 0.7581,1.14315 0.7581,1.83036" />
    <text
       style="font-style:normal;font-variant:normal;font-weight:normal;font-stretch:normal;font-size:2.11666656px;font-family:Calibri;-inkscape-font-specification:'Calibri, Normal';font-variant-ligatures:normal;font-variant-caps:normal;font-variant-numeric:normal;font-feature-settings:normal;text-align:start;writing-mode:lr-tb;text-anchor:start;fill:#000000;fill-opacity:1;fill-rule:nonzero;stroke:none;stroke-width:0.2215367"
       id="text854-6-7-7-4-3"
       x="142.40918"
       y="119.92284">
      <tspan
         style="font-style:normal;font-variant:normal;font-weight:normal;font-stretch:normal;font-size:2.11666656px;font-family:Calibri;-inkscape-font-specification:'Calibri, Normal';font-variant-ligatures:normal;font-variant-caps:normal;font-variant-numeric:normal;font-feature-settings:normal;text-align:start;writing-mode:lr-tb;text-anchor:start;stroke-width:0.2215367"
         y="119.92284"
         x="142.40918"
         sodipodi:role="line"
         id="tspan14855-6-5">Payload Size (0x03)</tspan>
    </text>
    <g
       id="g19499-1"
       transform="translate(84.381573,76.507187)">
      <path
         d="m 84.332223,54.77455 h 4.415161 v -4.415251 h -4.415161 z"
         style="fill:none;stroke:#000000;stroke-width:0.1661523;stroke-linecap:round;stroke-linejoin:round;stroke-miterlimit:3;stroke-dasharray:none;stroke-opacity:1"
         id="path710-0-6-1-4"
         inkscape:connector-curvature="0" />
      <text
         y="53.223278"
         x="85.879662"
         id="text716-92-2-5-6"
         style="font-variant:normal;font-weight:normal;font-size:2.21536708px;font-family:Calibri;-inkscape-font-specification:Calibri;writing-mode:lr-tb;fill:#000000;fill-opacity:1;fill-rule:nonzero;stroke:none;stroke-width:0.2215367">
        <tspan
           style="stroke-width:0.2215367"
           id="tspan714-7-7-1-7"
           y="53.223278"
           x="85.879662">A</tspan>
      </text>
      <path
         d="m 86.806345,56.726069 v 2.75345"
         style="fill:none;stroke:#000000;stroke-width:0.1661523;stroke-linecap:round;stroke-linejoin:round;stroke-miterlimit:3;stroke-dasharray:none;stroke-opacity:1"
         id="path732-7-6-1-4"
         inkscape:connector-curvature="0" />
      <path
         d="m 86.08214,56.986368 0.724205,-1.448649 0.719108,1.434888 c -0.455036,-0.224128 -0.989161,-0.223258 -1.444196,0.003"
         style="fill:#000000;fill-opacity:1;fill-rule:evenodd;stroke:none;stroke-width:0.02215367"
         id="path734-2-1-7-3"
         inkscape:connector-curvature="0" />
      <text
         y="61.816051"
         x="86.024101"
         id="text740-8-7-56-9"
         style="font-variant:normal;font-weight:normal;font-size:2.65846252px;font-family:Calibri;-inkscape-font-specification:Calibri;writing-mode:lr-tb;fill:#000000;fill-opacity:1;fill-rule:nonzero;stroke:none;stroke-width:0.2215367">
        <tspan
           style="stroke-width:0.2215367"
           id="tspan738-1-4-3-2"
           sodipodi:role="line"
           y="61.816051"
           x="86.024101 87.542053 88.959007">ACK</tspan>
      </text>
    </g>
    <g
       id="g19952"
       transform="translate(-5.5218121,73.215658)">
      <g
         transform="translate(117.42803,-125.68784)"
         id="g12459">
        <text
           style="font-variant:normal;font-weight:normal;font-size:2.21536708px;font-family:Calibri;-inkscape-font-specification:Calibri;writing-mode:lr-tb;fill:#000000;fill-opacity:1;fill-rule:nonzero;stroke:none;stroke-width:0.2215367"
           id="text850-4-92-2-5"
           x="17.767111"
           y="213.99385">
          <tspan
             x="17.767111 19.12957"
             y="213.99385"
             sodipodi:role="line"
             id="tspan848-8-15-0-6"
             style="stroke-width:0.2215367">C7</tspan>
        </text>
        <text
           style="font-variant:normal;font-weight:normal;font-size:2.21536708px;font-family:Calibri;-inkscape-font-specification:Calibri;writing-mode:lr-tb;fill:#000000;fill-opacity:1;fill-rule:nonzero;stroke:none;stroke-width:0.2215367"
           id="text850-4-6-4-4-6"
           x="22.284122"
           y="213.97978">
          <tspan
             x="22.284122"
             sodipodi:role="line"
             id="tspan848-8-3-9-7-8"
             style="stroke-width:0.2215367"
             y="213.97978">C6</tspan>
        </text>
        <text
           style="font-variant:normal;font-weight:normal;font-size:2.21536708px;font-family:Calibri;-inkscape-font-specification:Calibri;writing-mode:lr-tb;fill:#000000;fill-opacity:1;fill-rule:nonzero;stroke:none;stroke-width:0.2215367"
           id="text850-4-4-1-4-6"
           x="26.739193"
           y="213.97978">
          <tspan
             x="26.739193"
             sodipodi:role="line"
             id="tspan848-8-9-0-7-0"
             style="stroke-width:0.2215367"
             y="213.97978">C5</tspan>
        </text>
        <text
           style="font-style:normal;font-variant:normal;font-weight:normal;font-stretch:normal;font-size:2.21537375px;font-family:Calibri;-inkscape-font-specification:'Calibri, Normal';font-variant-ligatures:normal;font-variant-caps:normal;font-variant-numeric:normal;font-feature-settings:normal;text-align:start;writing-mode:lr-tb;text-anchor:start;fill:#000000;fill-opacity:1;fill-rule:nonzero;stroke:none;stroke-width:0.2215367"
           id="text850-4-9-9-2-3"
           x="31.140171"
           y="213.99385">
          <tspan
             style="stroke-width:0.2215367"
             sodipodi:role="line"
             id="tspan9322-1-0-9"
             x="31.140171"
             y="213.99385">C4</tspan>
        </text>
        <text
           style="font-style:normal;font-variant:normal;font-weight:normal;font-stretch:normal;font-size:2.21537375px;font-family:Calibri;-inkscape-font-specification:'Calibri, Normal';font-variant-ligatures:normal;font-variant-caps:normal;font-variant-numeric:normal;font-feature-settings:normal;text-align:start;writing-mode:lr-tb;text-anchor:start;fill:#000000;fill-opacity:1;fill-rule:nonzero;stroke:none;stroke-width:0.2215367"
           id="text850-4-2-3-1-6"
           x="35.609306"
           y="213.97978">
          <tspan
             y="213.97978"
             x="35.609306"
             sodipodi:role="line"
             id="tspan11902">C3</tspan>
        </text>
        <text
           style="font-style:normal;font-variant:normal;font-weight:normal;font-stretch:normal;font-size:2.21537375px;font-family:Calibri;-inkscape-font-specification:'Calibri, Normal';font-variant-ligatures:normal;font-variant-caps:normal;font-variant-numeric:normal;font-feature-settings:normal;text-align:start;writing-mode:lr-tb;text-anchor:start;fill:#000000;fill-opacity:1;fill-rule:nonzero;stroke:none;stroke-width:0.2215367"
           id="text850-4-5-8-3-8"
           x="40.037872"
           y="214.00034">
          <tspan
             style="stroke-width:0.2215367"
             sodipodi:role="line"
             id="tspan9328-9-5-9"
             x="40.037872"
             y="214.00034">C2</tspan>
        </text>
        <text
           style="font-style:normal;font-variant:normal;font-weight:normal;font-stretch:normal;font-size:2.21537375px;font-family:Calibri;-inkscape-font-specification:'Calibri, Normal';font-variant-ligatures:normal;font-variant-caps:normal;font-variant-numeric:normal;font-feature-settings:normal;text-align:start;writing-mode:lr-tb;text-anchor:start;fill:#000000;fill-opacity:1;fill-rule:nonzero;stroke:none;stroke-width:0.2215367"
           id="text850-4-91-9-1-5"
           x="44.470226"
           y="214.00034">
          <tspan
             y="214.00034"
             x="44.470226"
             sodipodi:role="line"
             id="tspan11904">C1</tspan>
        </text>
        <text
           style="font-variant:normal;font-weight:normal;font-size:2.21536708px;font-family:Calibri;-inkscape-font-specification:Calibri;writing-mode:lr-tb;fill:#000000;fill-opacity:1;fill-rule:nonzero;stroke:none;stroke-width:0.2215367"
           id="text850-4-0-0-6-5"
           x="48.882568"
           y="213.97978">
          <tspan
             x="48.882568"
             sodipodi:role="line"
             id="tspan848-8-0-4-6-6"
             style="stroke-width:0.2215367"
             y="213.97978">C0</tspan>
        </text>
      </g>
      <path
         d="m 134.22693,89.808295 h 4.41525 v -4.41516 h -4.41525 z"
         style="fill:none;stroke:#000000;stroke-width:0.1661523;stroke-linecap:round;stroke-linejoin:round;stroke-miterlimit:3;stroke-dasharray:none;stroke-opacity:1"
         id="path614-5-26"
         inkscape:connector-curvature="0" />
      <path
         d="m 138.62659,89.808295 h 4.49478 v -4.41516 h -4.49478 z"
         style="fill:none;stroke:#000000;stroke-width:0.1661523;stroke-linecap:round;stroke-linejoin:round;stroke-miterlimit:3;stroke-dasharray:none;stroke-opacity:1"
         id="path618-3-8"
         inkscape:connector-curvature="0" />
      <path
         d="m 143.11696,89.808295 h 4.41525 v -4.41516 h -4.41525 z"
         style="fill:none;stroke:#000000;stroke-width:0.1661523;stroke-linecap:round;stroke-linejoin:round;stroke-miterlimit:3;stroke-dasharray:none;stroke-opacity:1"
         id="path622-5-8"
         inkscape:connector-curvature="0" />
      <path
         d="m 147.5027,89.809245 h 4.41525 v -4.41525 h -4.41525 z"
         style="fill:none;stroke:#000000;stroke-width:0.1661523;stroke-linecap:round;stroke-linejoin:round;stroke-miterlimit:3;stroke-dasharray:none;stroke-opacity:1"
         id="path626-7-5"
         inkscape:connector-curvature="0" />
      <path
         d="m 151.90158,89.808295 h 4.49564 v -4.41516 h -4.49564 z"
         style="fill:none;stroke:#000000;stroke-width:0.1661523;stroke-linecap:round;stroke-linejoin:round;stroke-miterlimit:3;stroke-dasharray:none;stroke-opacity:1"
         id="path630-2-28"
         inkscape:connector-curvature="0" />
      <path
         d="m 156.38501,89.809245 h 4.41526 v -4.41525 h -4.41526 z"
         style="fill:none;stroke:#000000;stroke-width:0.1661523;stroke-linecap:round;stroke-linejoin:round;stroke-miterlimit:3;stroke-dasharray:none;stroke-opacity:1"
         id="path634-1-1"
         inkscape:connector-curvature="0" />
      <path
         d="m 160.80027,89.809235 h 4.41525 v -4.41525 h -4.41525 z"
         style="fill:none;stroke:#000000;stroke-width:0.1661523;stroke-linecap:round;stroke-linejoin:round;stroke-miterlimit:3;stroke-dasharray:none;stroke-opacity:1"
         id="path638-4-5"
         inkscape:connector-curvature="0" />
      <path
         d="m 165.17027,89.808295 h 4.49565 v -4.41516 h -4.49565 z"
         style="fill:none;stroke:#000000;stroke-width:0.1661523;stroke-linecap:round;stroke-linejoin:round;stroke-miterlimit:3;stroke-dasharray:none;stroke-opacity:1"
         id="path642-8-77"
         inkscape:connector-curvature="0" />
    </g>
    <path
       inkscape:connector-curvature="0"
       id="path906-1-7-9-8-7-5-7"
       style="fill:none;stroke:#000000;stroke-width:0.05316881;stroke-linecap:round;stroke-linejoin:round;stroke-miterlimit:3;stroke-dasharray:none;stroke-opacity:1"
       d="m 128.64609,157.72007 c 0,-0.68721 0.2725,-1.34497 0.75722,-1.83036 0.48538,-0.48556 1.14401,-0.75808 1.83034,-0.75808 h 12.43884 c 1.42869,7.9e-4 2.58666,-1.15708 2.58754,-2.58489 8e-4,1.42781 1.15954,2.58576 2.58736,2.58489 h 12.5662 c 0.68633,0 1.34386,0.27252 1.82945,0.75808 0.48539,0.48539 0.7581,1.14315 0.7581,1.83036" />
    <text
       style="font-style:normal;font-variant:normal;font-weight:normal;font-stretch:normal;font-size:2.11666656px;font-family:Calibri;-inkscape-font-specification:'Calibri, Normal';font-variant-ligatures:normal;font-variant-caps:normal;font-variant-numeric:normal;font-feature-settings:normal;text-align:start;writing-mode:lr-tb;text-anchor:start;fill:#000000;fill-opacity:1;fill-rule:nonzero;stroke:none;stroke-width:0.2215367"
       id="text854-6-7-6"
       x="141.02679"
       y="151.81918">
      <tspan
         style="font-style:normal;font-variant:normal;font-weight:normal;font-stretch:normal;font-size:2.11666656px;font-family:Calibri;-inkscape-font-specification:'Calibri, Normal';font-variant-ligatures:normal;font-variant-caps:normal;font-variant-numeric:normal;font-feature-settings:normal;text-align:start;writing-mode:lr-tb;text-anchor:start;stroke-width:0.2215367"
         y="151.81918"
         x="141.02679"
         sodipodi:role="line"
         id="tspan14845">CRC8 (8 bits)</tspan>
    </text>
    <path
       inkscape:connector-curvature="0"
       id="path644-1-0-3-0"
       style="fill:#cbcbcb;fill-opacity:1;fill-rule:evenodd;stroke:none;stroke-width:0.02215367"
       d="m 164.14411,163.02395 h 4.41525 v -4.41525 h -4.41525 z" />
    <path
       inkscape:connector-curvature="0"
       id="path646-9-7-6-1"
       style="fill:none;stroke:#000000;stroke-width:0.1661523;stroke-linecap:round;stroke-linejoin:round;stroke-miterlimit:3;stroke-dasharray:none;stroke-opacity:1"
       d="m 164.14411,163.02395 h 4.41525 v -4.41525 h -4.41525 z" />
    <text
       style="font-style:normal;font-variant:normal;font-weight:normal;font-stretch:normal;font-size:2.21537375px;font-family:Calibri;-inkscape-font-specification:'Calibri, Normal';font-variant-ligatures:normal;font-variant-caps:normal;font-variant-numeric:normal;font-feature-settings:normal;text-align:start;writing-mode:lr-tb;text-anchor:start;fill:#000000;fill-opacity:1;fill-rule:nonzero;stroke:none;stroke-width:0.2215367"
       id="text850-4-91-7-7-0-3-0-6"
       x="165.63672"
       y="161.5162">
      <tspan
         style="stroke-width:0.2215367"
         sodipodi:role="line"
         id="tspan11924-5"
         x="165.63672"
         y="161.5162">N</tspan>
    </text>
    <text
       style="font-variant:normal;font-weight:normal;font-size:2.65846252px;font-family:Calibri;-inkscape-font-specification:Calibri;writing-mode:lr-tb;fill:#000000;fill-opacity:1;fill-rule:nonzero;stroke:none;stroke-width:0.2215367"
       id="text874-0-8"
       x="160.72469"
       y="169.98833">
      <tspan
         x="160.72469 162.44208 163.96268 165.37962"
         y="169.98833"
         sodipodi:role="line"
         id="tspan872-2-9"
         style="stroke-width:0.2215367">NACK</tspan>
    </text>
    <path
       inkscape:connector-curvature="0"
       id="path614-5-9-9-4"
       style="fill:none;stroke:#000000;stroke-width:0.1661523;stroke-linecap:round;stroke-linejoin:round;stroke-miterlimit:3;stroke-dasharray:none;stroke-opacity:1"
       d="m 48.996622,163.02395 h 4.41525 v -4.41517 h -4.41525 z" />
    <path
       inkscape:connector-curvature="0"
       id="path618-3-4-3-9"
       style="fill:none;stroke:#000000;stroke-width:0.1661523;stroke-linecap:round;stroke-linejoin:round;stroke-miterlimit:3;stroke-dasharray:none;stroke-opacity:1"
       d="m 53.39628,163.02395 h 4.494779 v -4.41517 H 53.39628 Z" />
    <path
       inkscape:connector-curvature="0"
       id="path622-5-4-9-0"
       style="fill:none;stroke:#000000;stroke-width:0.1661523;stroke-linecap:round;stroke-linejoin:round;stroke-miterlimit:3;stroke-dasharray:none;stroke-opacity:1"
       d="m 57.886651,163.02395 h 4.41525 v -4.41517 h -4.41525 z" />
    <path
       inkscape:connector-curvature="0"
       id="path626-7-57-3-5"
       style="fill:none;stroke:#000000;stroke-width:0.1661523;stroke-linecap:round;stroke-linejoin:round;stroke-miterlimit:3;stroke-dasharray:none;stroke-opacity:1"
       d="m 62.272389,163.02489 h 4.415248 v -4.41525 h -4.415248 z" />
    <path
       inkscape:connector-curvature="0"
       id="path630-2-1-9-2"
       style="fill:none;stroke:#000000;stroke-width:0.1661523;stroke-linecap:round;stroke-linejoin:round;stroke-miterlimit:3;stroke-dasharray:none;stroke-opacity:1"
       d="m 66.671267,163.02395 h 4.495655 v -4.41517 h -4.495655 z" />
    <path
       inkscape:connector-curvature="0"
       id="path634-1-17-9-2"
       style="fill:none;stroke:#000000;stroke-width:0.1661523;stroke-linecap:round;stroke-linejoin:round;stroke-miterlimit:3;stroke-dasharray:none;stroke-opacity:1"
       d="m 71.154722,163.02489 h 4.41525 v -4.41525 h -4.41525 z" />
    <path
       inkscape:connector-curvature="0"
       id="path638-4-8-0-9"
       style="fill:none;stroke:#000000;stroke-width:0.1661523;stroke-linecap:round;stroke-linejoin:round;stroke-miterlimit:3;stroke-dasharray:none;stroke-opacity:1"
       d="m 75.569953,163.02488 h 4.415261 v -4.41525 h -4.415261 z" />
    <path
       inkscape:connector-curvature="0"
       id="path642-8-76-7-1"
       style="fill:none;stroke:#000000;stroke-width:0.1661523;stroke-linecap:round;stroke-linejoin:round;stroke-miterlimit:3;stroke-dasharray:none;stroke-opacity:1"
       d="m 79.939984,163.02395 h 4.495649 v -4.41517 h -4.495649 z" />
    <text
       style="font-variant:normal;font-weight:normal;font-size:2.21536708px;font-family:Calibri;-inkscape-font-specification:Calibri;writing-mode:lr-tb;fill:#000000;fill-opacity:1;fill-rule:nonzero;stroke:none;stroke-width:0.2215367"
       id="text850-4-92-2-9-7"
       x="49.897594"
       y="161.53029">
      <tspan
         x="49.897594 51.260052"
         y="161.53029"
         sodipodi:role="line"
         id="tspan848-8-15-0-69-0"
         style="stroke-width:0.2215367">D7</tspan>
    </text>
    <text
       style="font-variant:normal;font-weight:normal;font-size:2.21536708px;font-family:Calibri;-inkscape-font-specification:Calibri;writing-mode:lr-tb;fill:#000000;fill-opacity:1;fill-rule:nonzero;stroke:none;stroke-width:0.2215367"
       id="text850-4-6-4-4-5-4"
       x="49.877098"
       y="161.51622">
      <tspan
         x="54.318935 55.681377"
         sodipodi:role="line"
         id="tspan848-8-3-9-7-76-7"
         style="stroke-width:0.2215367">D6</tspan>
    </text>
    <text
       style="font-variant:normal;font-weight:normal;font-size:2.21536708px;font-family:Calibri;-inkscape-font-specification:Calibri;writing-mode:lr-tb;fill:#000000;fill-opacity:1;fill-rule:nonzero;stroke:none;stroke-width:0.2215367"
       id="text850-4-4-1-4-64-0"
       x="49.925167"
       y="161.51622">
      <tspan
         x="58.768932 60.131378"
         sodipodi:role="line"
         id="tspan848-8-9-0-7-7-6"
         style="stroke-width:0.2215367">D5</tspan>
    </text>
    <text
       style="font-style:normal;font-variant:normal;font-weight:normal;font-stretch:normal;font-size:2.21537375px;font-family:Calibri;-inkscape-font-specification:'Calibri, Normal';font-variant-ligatures:normal;font-variant-caps:normal;font-variant-numeric:normal;font-feature-settings:normal;text-align:start;writing-mode:lr-tb;text-anchor:start;fill:#000000;fill-opacity:1;fill-rule:nonzero;stroke:none;stroke-width:0.2215367"
       id="text850-4-9-9-2-8-5"
       x="63.164577"
       y="161.53029">
      <tspan
         style="stroke-width:0.2215367"
         sodipodi:role="line"
         id="tspan9322-1-0-0-1"
         x="63.164577"
         y="161.53029">D4</tspan>
    </text>
    <text
       style="font-style:normal;font-variant:normal;font-weight:normal;font-stretch:normal;font-size:2.21537375px;font-family:Calibri;-inkscape-font-specification:'Calibri, Normal';font-variant-ligatures:normal;font-variant-caps:normal;font-variant-numeric:normal;font-feature-settings:normal;text-align:start;writing-mode:lr-tb;text-anchor:start;fill:#000000;fill-opacity:1;fill-rule:nonzero;stroke:none;stroke-width:0.2215367"
       id="text850-4-2-3-1-3-1"
       x="67.628639"
       y="161.51622">
      <tspan
         sodipodi:role="line"
         id="tspan11906-8-5"
         x="67.628639"
         y="161.51622">D3</tspan>
    </text>
    <text
       style="font-style:normal;font-variant:normal;font-weight:normal;font-stretch:normal;font-size:2.21537375px;font-family:Calibri;-inkscape-font-specification:'Calibri, Normal';font-variant-ligatures:normal;font-variant-caps:normal;font-variant-numeric:normal;font-feature-settings:normal;text-align:start;writing-mode:lr-tb;text-anchor:start;fill:#000000;fill-opacity:1;fill-rule:nonzero;stroke:none;stroke-width:0.2215367"
       id="text850-4-5-8-3-5-4"
       x="72.052132"
       y="161.53677">
      <tspan
         style="stroke-width:0.2215367"
         sodipodi:role="line"
         id="tspan9328-9-5-8-9"
         x="72.052132"
         y="161.53677">D2</tspan>
    </text>
    <text
       style="font-style:normal;font-variant:normal;font-weight:normal;font-stretch:normal;font-size:2.21537375px;font-family:Calibri;-inkscape-font-specification:'Calibri, Normal';font-variant-ligatures:normal;font-variant-caps:normal;font-variant-numeric:normal;font-feature-settings:normal;text-align:start;writing-mode:lr-tb;text-anchor:start;fill:#000000;fill-opacity:1;fill-rule:nonzero;stroke:none;stroke-width:0.2215367"
       id="text850-4-91-9-1-2-2"
       x="76.479416"
       y="161.53677">
      <tspan
         sodipodi:role="line"
         id="tspan11908-4-6"
         x="76.479416"
         y="161.53677">D1</tspan>
    </text>
    <text
       style="font-variant:normal;font-weight:normal;font-size:2.21536708px;font-family:Calibri;-inkscape-font-specification:Calibri;writing-mode:lr-tb;fill:#000000;fill-opacity:1;fill-rule:nonzero;stroke:none;stroke-width:0.2215367"
       id="text850-4-0-0-6-8-8"
       x="49.876301"
       y="161.51622">
      <tspan
         x="80.886948 82.249397"
         sodipodi:role="line"
         id="tspan848-8-0-4-6-1-2"
         style="stroke-width:0.2215367">D0</tspan>
    </text>
    <path
       inkscape:connector-curvature="0"
       id="path614-5-9-9-4-8"
       style="fill:none;stroke:#000000;stroke-width:0.1661523;stroke-linecap:round;stroke-linejoin:round;stroke-miterlimit:3;stroke-dasharray:none;stroke-opacity:1"
       d="m 88.850862,163.02395 h 4.415245 v -4.41515 h -4.415245 z" />
    <path
       inkscape:connector-curvature="0"
       id="path618-3-4-3-9-4"
       style="fill:none;stroke:#000000;stroke-width:0.1661523;stroke-linecap:round;stroke-linejoin:round;stroke-miterlimit:3;stroke-dasharray:none;stroke-opacity:1"
       d="m 93.250518,163.02395 h 4.494781 v -4.41515 h -4.494781 z" />
    <path
       inkscape:connector-curvature="0"
       id="path622-5-4-9-0-4"
       style="fill:none;stroke:#000000;stroke-width:0.1661523;stroke-linecap:round;stroke-linejoin:round;stroke-miterlimit:3;stroke-dasharray:none;stroke-opacity:1"
       d="m 97.740888,163.02395 h 4.415252 v -4.41515 h -4.415252 z" />
    <path
       inkscape:connector-curvature="0"
       id="path626-7-57-3-5-7"
       style="fill:none;stroke:#000000;stroke-width:0.1661523;stroke-linecap:round;stroke-linejoin:round;stroke-miterlimit:3;stroke-dasharray:none;stroke-opacity:1"
       d="m 102.12662,163.02491 h 4.41525 v -4.41525 h -4.41525 z" />
    <path
       inkscape:connector-curvature="0"
       id="path630-2-1-9-2-3"
       style="fill:none;stroke:#000000;stroke-width:0.1661523;stroke-linecap:round;stroke-linejoin:round;stroke-miterlimit:3;stroke-dasharray:none;stroke-opacity:1"
       d="m 106.52549,163.02395 h 4.49567 v -4.41515 h -4.49567 z" />
    <path
       inkscape:connector-curvature="0"
       id="path634-1-17-9-2-6"
       style="fill:none;stroke:#000000;stroke-width:0.1661523;stroke-linecap:round;stroke-linejoin:round;stroke-miterlimit:3;stroke-dasharray:none;stroke-opacity:1"
       d="m 111.00896,163.02491 h 4.41524 v -4.41525 h -4.41524 z" />
    <path
       inkscape:connector-curvature="0"
       id="path638-4-8-0-9-8"
       style="fill:none;stroke:#000000;stroke-width:0.1661523;stroke-linecap:round;stroke-linejoin:round;stroke-miterlimit:3;stroke-dasharray:none;stroke-opacity:1"
       d="m 115.42419,163.0249 h 4.41526 v -4.41526 h -4.41526 z" />
    <path
       inkscape:connector-curvature="0"
       id="path642-8-76-7-1-7"
       style="fill:none;stroke:#000000;stroke-width:0.1661523;stroke-linecap:round;stroke-linejoin:round;stroke-miterlimit:3;stroke-dasharray:none;stroke-opacity:1"
       d="m 119.79422,163.02395 h 4.49565 v -4.41515 h -4.49565 z" />
    <text
       style="font-variant:normal;font-weight:normal;font-size:2.21536708px;font-family:Calibri;-inkscape-font-specification:Calibri;writing-mode:lr-tb;fill:#000000;fill-opacity:1;fill-rule:nonzero;stroke:none;stroke-width:0.2215367"
       id="text850-4-92-2-9-7-9"
       x="89.751831"
       y="161.5303">
      <tspan
         x="89.751831 91.114296"
         y="161.5303"
         sodipodi:role="line"
         id="tspan848-8-15-0-69-0-2"
         style="stroke-width:0.2215367">D7</tspan>
    </text>
    <text
       style="font-variant:normal;font-weight:normal;font-size:2.21536708px;font-family:Calibri;-inkscape-font-specification:Calibri;writing-mode:lr-tb;fill:#000000;fill-opacity:1;fill-rule:nonzero;stroke:none;stroke-width:0.2215367"
       id="text850-4-6-4-4-5-4-1"
       x="89.731339"
       y="161.51624">
      <tspan
         x="94.173172 95.535614"
         sodipodi:role="line"
         id="tspan848-8-3-9-7-76-7-6"
         style="stroke-width:0.2215367">D6</tspan>
    </text>
    <text
       style="font-variant:normal;font-weight:normal;font-size:2.21536708px;font-family:Calibri;-inkscape-font-specification:Calibri;writing-mode:lr-tb;fill:#000000;fill-opacity:1;fill-rule:nonzero;stroke:none;stroke-width:0.2215367"
       id="text850-4-4-1-4-64-0-1"
       x="89.779411"
       y="161.51624">
      <tspan
         x="98.623169 99.985619"
         sodipodi:role="line"
         id="tspan848-8-9-0-7-7-6-1"
         style="stroke-width:0.2215367">D5</tspan>
    </text>
    <text
       style="font-style:normal;font-variant:normal;font-weight:normal;font-stretch:normal;font-size:2.21537375px;font-family:Calibri;-inkscape-font-specification:'Calibri, Normal';font-variant-ligatures:normal;font-variant-caps:normal;font-variant-numeric:normal;font-feature-settings:normal;text-align:start;writing-mode:lr-tb;text-anchor:start;fill:#000000;fill-opacity:1;fill-rule:nonzero;stroke:none;stroke-width:0.2215367"
       id="text850-4-9-9-2-8-5-7"
       x="103.01881"
       y="161.5303">
      <tspan
         style="stroke-width:0.2215367"
         sodipodi:role="line"
         id="tspan9322-1-0-0-1-6"
         x="103.01881"
         y="161.5303">D4</tspan>
    </text>
    <text
       style="font-style:normal;font-variant:normal;font-weight:normal;font-stretch:normal;font-size:2.21537375px;font-family:Calibri;-inkscape-font-specification:'Calibri, Normal';font-variant-ligatures:normal;font-variant-caps:normal;font-variant-numeric:normal;font-feature-settings:normal;text-align:start;writing-mode:lr-tb;text-anchor:start;fill:#000000;fill-opacity:1;fill-rule:nonzero;stroke:none;stroke-width:0.2215367"
       id="text850-4-2-3-1-3-1-0"
       x="107.48288"
       y="161.51624">
      <tspan
         sodipodi:role="line"
         id="tspan11906-8-5-6"
         x="107.48288"
         y="161.51624">D3</tspan>
    </text>
    <text
       style="font-style:normal;font-variant:normal;font-weight:normal;font-stretch:normal;font-size:2.21537375px;font-family:Calibri;-inkscape-font-specification:'Calibri, Normal';font-variant-ligatures:normal;font-variant-caps:normal;font-variant-numeric:normal;font-feature-settings:normal;text-align:start;writing-mode:lr-tb;text-anchor:start;fill:#000000;fill-opacity:1;fill-rule:nonzero;stroke:none;stroke-width:0.2215367"
       id="text850-4-5-8-3-5-4-4"
       x="111.90637"
       y="161.53679">
      <tspan
         style="stroke-width:0.2215367"
         sodipodi:role="line"
         id="tspan9328-9-5-8-9-7"
         x="111.90637"
         y="161.53679">D2</tspan>
    </text>
    <text
       style="font-style:normal;font-variant:normal;font-weight:normal;font-stretch:normal;font-size:2.21537375px;font-family:Calibri;-inkscape-font-specification:'Calibri, Normal';font-variant-ligatures:normal;font-variant-caps:normal;font-variant-numeric:normal;font-feature-settings:normal;text-align:start;writing-mode:lr-tb;text-anchor:start;fill:#000000;fill-opacity:1;fill-rule:nonzero;stroke:none;stroke-width:0.2215367"
       id="text850-4-91-9-1-2-2-4"
       x="116.33366"
       y="161.53679">
      <tspan
         sodipodi:role="line"
         id="tspan11908-4-6-3"
         x="116.33366"
         y="161.53679">D1</tspan>
    </text>
    <text
       style="font-variant:normal;font-weight:normal;font-size:2.21536708px;font-family:Calibri;-inkscape-font-specification:Calibri;writing-mode:lr-tb;fill:#000000;fill-opacity:1;fill-rule:nonzero;stroke:none;stroke-width:0.2215367"
       id="text850-4-0-0-6-8-8-2"
       x="89.730537"
       y="161.51624">
      <tspan
         x="120.74119 122.10364"
         sodipodi:role="line"
         id="tspan848-8-0-4-6-1-2-6"
         style="stroke-width:0.2215367">D0</tspan>
    </text>
    <path
       inkscape:connector-curvature="0"
       id="path728-8-1-3"
       style="fill:none;stroke:#000000;stroke-width:0.1661523;stroke-linecap:round;stroke-linejoin:round;stroke-miterlimit:3;stroke-dasharray:none;stroke-opacity:1"
       d="m 126.57128,133.2331 v 2.75361" />
    <path
       inkscape:connector-curvature="0"
       id="path730-4-2-6"
       style="fill:#000000;fill-opacity:1;fill-rule:evenodd;stroke:none;stroke-width:0.02215367"
       d="m 125.84686,133.49356 0.72442,-1.44863 0.71999,1.43469 c -0.45525,-0.22395 -0.99004,-0.22308 -1.44441,0.003" />
    <text
       style="font-variant:normal;font-weight:normal;font-size:2.65846252px;font-family:Calibri;-inkscape-font-specification:Calibri;writing-mode:lr-tb;fill:#000000;fill-opacity:1;fill-rule:nonzero;stroke:none;stroke-width:0.2215367"
       id="text912-0-3-7"
       x="119.96262"
       y="138.44846">
      <tspan
         x="119.96262 121.40617 122.43235 124.79839"
         y="138.44846"
         sodipodi:role="line"
         id="tspan910-1-5-5"
         style="stroke-width:0.2215367">R/W=1</tspan>
    </text>
  </g>
</svg>
