<mxfile host="app.diagrams.net" modified="2023-05-22T09:37:09.056Z" agent="Mozilla/5.0 (Windows NT 10.0; Win64; x64; rv:109.0) Gecko/20100101 Firefox/113.0" etag="IyTMvVrlatcaFs7wSOfd" version="21.3.2" type="gitlab">
  <diagram name="Page-1" id="OnKRmVF-rZJeyT37phu9">
    <mxGraphModel dx="1091" dy="772" grid="1" gridSize="10" guides="1" tooltips="1" connect="1" arrows="1" fold="1" page="1" pageScale="1" pageWidth="850" pageHeight="1100" math="0" shadow="0">
      <root>
        <mxCell id="0" />
        <mxCell id="1" parent="0" />
        <mxCell id="n7GmRws4o9n9_fwbOli6-9" style="edgeStyle=orthogonalEdgeStyle;rounded=0;orthogonalLoop=1;jettySize=auto;html=1;exitX=0.5;exitY=1;exitDx=0;exitDy=0;entryX=0.5;entryY=0;entryDx=0;entryDy=0;" parent="1" source="n7GmRws4o9n9_fwbOli6-3" target="n7GmRws4o9n9_fwbOli6-5" edge="1">
          <mxGeometry relative="1" as="geometry" />
        </mxCell>
        <mxCell id="n7GmRws4o9n9_fwbOli6-3" value="Write Cycle Double Word" style="rounded=1;whiteSpace=wrap;html=1;absoluteArcSize=1;arcSize=14;strokeWidth=2;" parent="1" vertex="1">
          <mxGeometry x="230" y="10" width="145" height="40" as="geometry" />
        </mxCell>
        <mxCell id="n7GmRws4o9n9_fwbOli6-10" style="edgeStyle=orthogonalEdgeStyle;rounded=0;orthogonalLoop=1;jettySize=auto;html=1;exitX=0.5;exitY=1;exitDx=0;exitDy=0;entryX=0.5;entryY=0;entryDx=0;entryDy=0;" parent="1" source="n7GmRws4o9n9_fwbOli6-5" target="n7GmRws4o9n9_fwbOli6-6" edge="1">
          <mxGeometry relative="1" as="geometry" />
        </mxCell>
        <mxCell id="n7GmRws4o9n9_fwbOli6-5" value="Start Condition" style="rounded=1;whiteSpace=wrap;html=1;absoluteArcSize=1;arcSize=14;strokeWidth=2;" parent="1" vertex="1">
          <mxGeometry x="230" y="80" width="145" height="30" as="geometry" />
        </mxCell>
        <mxCell id="n7GmRws4o9n9_fwbOli6-11" style="edgeStyle=orthogonalEdgeStyle;rounded=0;orthogonalLoop=1;jettySize=auto;html=1;exitX=0.5;exitY=1;exitDx=0;exitDy=0;entryX=0.5;entryY=0;entryDx=0;entryDy=0;entryPerimeter=0;" parent="1" source="n7GmRws4o9n9_fwbOli6-6" target="n7GmRws4o9n9_fwbOli6-7" edge="1">
          <mxGeometry relative="1" as="geometry" />
        </mxCell>
        <mxCell id="n7GmRws4o9n9_fwbOli6-6" value="Device select Adrees&lt;br&gt; with R&lt;u&gt;W&lt;/u&gt; = 0" style="rounded=1;whiteSpace=wrap;html=1;absoluteArcSize=1;arcSize=14;strokeWidth=2;" parent="1" vertex="1">
          <mxGeometry x="230" y="140" width="145" height="40" as="geometry" />
        </mxCell>
        <mxCell id="n7GmRws4o9n9_fwbOli6-8" style="edgeStyle=elbowEdgeStyle;rounded=0;orthogonalLoop=1;jettySize=auto;html=1;exitX=0;exitY=0.5;exitDx=0;exitDy=0;exitPerimeter=0;entryX=0.552;entryY=0;entryDx=0;entryDy=0;entryPerimeter=0;elbow=vertical;" parent="1" source="n7GmRws4o9n9_fwbOli6-7" target="n7GmRws4o9n9_fwbOli6-13" edge="1">
          <mxGeometry relative="1" as="geometry">
            <mxPoint x="440" y="60" as="targetPoint" />
            <Array as="points">
              <mxPoint x="260" y="240" />
            </Array>
          </mxGeometry>
        </mxCell>
        <mxCell id="n7GmRws4o9n9_fwbOli6-15" style="edgeStyle=orthogonalEdgeStyle;rounded=0;orthogonalLoop=1;jettySize=auto;html=1;exitX=0.5;exitY=1;exitDx=0;exitDy=0;exitPerimeter=0;entryX=0.5;entryY=0;entryDx=0;entryDy=0;" parent="1" source="n7GmRws4o9n9_fwbOli6-7" target="n7GmRws4o9n9_fwbOli6-14" edge="1">
          <mxGeometry relative="1" as="geometry" />
        </mxCell>
        <mxCell id="n7GmRws4o9n9_fwbOli6-7" value="ACK&lt;br&gt;Returned" style="strokeWidth=2;html=1;shape=mxgraph.flowchart.decision;whiteSpace=wrap;" parent="1" vertex="1">
          <mxGeometry x="262.5" y="200" width="80" height="80" as="geometry" />
        </mxCell>
        <mxCell id="n7GmRws4o9n9_fwbOli6-13" value="STOP" style="rounded=1;whiteSpace=wrap;html=1;absoluteArcSize=1;arcSize=14;strokeWidth=2;" parent="1" vertex="1">
          <mxGeometry x="20" y="860" width="145" height="30" as="geometry" />
        </mxCell>
        <mxCell id="n7GmRws4o9n9_fwbOli6-19" style="edgeStyle=orthogonalEdgeStyle;rounded=0;orthogonalLoop=1;jettySize=auto;html=1;exitX=0.5;exitY=1;exitDx=0;exitDy=0;entryX=0.5;entryY=0;entryDx=0;entryDy=0;entryPerimeter=0;" parent="1" source="n7GmRws4o9n9_fwbOli6-14" target="n7GmRws4o9n9_fwbOli6-18" edge="1">
          <mxGeometry relative="1" as="geometry" />
        </mxCell>
        <mxCell id="n7GmRws4o9n9_fwbOli6-14" value="Send Operation Code andrecive ACK" style="rounded=1;whiteSpace=wrap;html=1;absoluteArcSize=1;arcSize=14;strokeWidth=2;" parent="1" vertex="1">
          <mxGeometry x="230" y="310" width="145" height="30" as="geometry" />
        </mxCell>
        <mxCell id="n7GmRws4o9n9_fwbOli6-22" style="edgeStyle=orthogonalEdgeStyle;rounded=0;orthogonalLoop=1;jettySize=auto;html=1;exitX=0;exitY=0.5;exitDx=0;exitDy=0;exitPerimeter=0;" parent="1" source="n7GmRws4o9n9_fwbOli6-18" edge="1">
          <mxGeometry relative="1" as="geometry">
            <mxPoint x="100" y="399.8571428571429" as="targetPoint" />
          </mxGeometry>
        </mxCell>
        <mxCell id="n7GmRws4o9n9_fwbOli6-29" style="edgeStyle=orthogonalEdgeStyle;rounded=0;orthogonalLoop=1;jettySize=auto;html=1;exitX=0.5;exitY=1;exitDx=0;exitDy=0;exitPerimeter=0;entryX=0.5;entryY=0;entryDx=0;entryDy=0;" parent="1" source="n7GmRws4o9n9_fwbOli6-18" target="n7GmRws4o9n9_fwbOli6-27" edge="1">
          <mxGeometry relative="1" as="geometry" />
        </mxCell>
        <mxCell id="n7GmRws4o9n9_fwbOli6-18" value="ACK&lt;br&gt;Returned" style="strokeWidth=2;html=1;shape=mxgraph.flowchart.decision;whiteSpace=wrap;" parent="1" vertex="1">
          <mxGeometry x="262.5" y="360" width="80" height="80" as="geometry" />
        </mxCell>
        <mxCell id="n7GmRws4o9n9_fwbOli6-36" style="edgeStyle=orthogonalEdgeStyle;rounded=0;orthogonalLoop=1;jettySize=auto;html=1;exitX=0.5;exitY=1;exitDx=0;exitDy=0;entryX=0.5;entryY=0;entryDx=0;entryDy=0;entryPerimeter=0;" parent="1" source="n7GmRws4o9n9_fwbOli6-27" target="n7GmRws4o9n9_fwbOli6-34" edge="1">
          <mxGeometry relative="1" as="geometry" />
        </mxCell>
        <mxCell id="n7GmRws4o9n9_fwbOli6-27" value="Send Data LSB and Recieve ACK" style="rounded=1;whiteSpace=wrap;html=1;absoluteArcSize=1;arcSize=14;strokeWidth=2;" parent="1" vertex="1">
          <mxGeometry x="230" y="470" width="145" height="30" as="geometry" />
        </mxCell>
        <mxCell id="n7GmRws4o9n9_fwbOli6-32" style="edgeStyle=orthogonalEdgeStyle;rounded=0;orthogonalLoop=1;jettySize=auto;html=1;exitX=0.5;exitY=1;exitDx=0;exitDy=0;exitPerimeter=0;entryX=0.5;entryY=0;entryDx=0;entryDy=0;" parent="1" source="n7GmRws4o9n9_fwbOli6-34" target="n7GmRws4o9n9_fwbOli6-35" edge="1">
          <mxGeometry relative="1" as="geometry" />
        </mxCell>
        <mxCell id="n7GmRws4o9n9_fwbOli6-46" style="edgeStyle=orthogonalEdgeStyle;rounded=0;orthogonalLoop=1;jettySize=auto;html=1;exitX=0;exitY=0.5;exitDx=0;exitDy=0;exitPerimeter=0;" parent="1" source="n7GmRws4o9n9_fwbOli6-34" edge="1">
          <mxGeometry relative="1" as="geometry">
            <mxPoint x="100" y="559.9230769230769" as="targetPoint" />
          </mxGeometry>
        </mxCell>
        <mxCell id="n7GmRws4o9n9_fwbOli6-34" value="ACK&lt;br&gt;Returned" style="strokeWidth=2;html=1;shape=mxgraph.flowchart.decision;whiteSpace=wrap;" parent="1" vertex="1">
          <mxGeometry x="262.5" y="520" width="80" height="80" as="geometry" />
        </mxCell>
        <mxCell id="n7GmRws4o9n9_fwbOli6-35" value="Send Data MSB and Recieve ACK" style="rounded=1;whiteSpace=wrap;html=1;absoluteArcSize=1;arcSize=14;strokeWidth=2;" parent="1" vertex="1">
          <mxGeometry x="230" y="630" width="145" height="30" as="geometry" />
        </mxCell>
        <mxCell id="n7GmRws4o9n9_fwbOli6-39" value="NO" style="text;html=1;align=center;verticalAlign=middle;resizable=0;points=[];autosize=1;strokeColor=none;fillColor=none;" parent="1" vertex="1">
          <mxGeometry x="165" y="535" width="40" height="30" as="geometry" />
        </mxCell>
        <mxCell id="n7GmRws4o9n9_fwbOli6-40" value="YES" style="text;html=1;align=center;verticalAlign=middle;resizable=0;points=[];autosize=1;strokeColor=none;fillColor=none;" parent="1" vertex="1">
          <mxGeometry x="295" y="588" width="50" height="30" as="geometry" />
        </mxCell>
        <mxCell id="n7GmRws4o9n9_fwbOli6-41" value="YES" style="text;html=1;align=center;verticalAlign=middle;resizable=0;points=[];autosize=1;strokeColor=none;fillColor=none;" parent="1" vertex="1">
          <mxGeometry x="295" y="430" width="50" height="30" as="geometry" />
        </mxCell>
        <mxCell id="n7GmRws4o9n9_fwbOli6-42" value="YES" style="text;html=1;align=center;verticalAlign=middle;resizable=0;points=[];autosize=1;strokeColor=none;fillColor=none;" parent="1" vertex="1">
          <mxGeometry x="295" y="270" width="50" height="30" as="geometry" />
        </mxCell>
        <mxCell id="n7GmRws4o9n9_fwbOli6-43" value="NO" style="text;html=1;align=center;verticalAlign=middle;resizable=0;points=[];autosize=1;strokeColor=none;fillColor=none;" parent="1" vertex="1">
          <mxGeometry x="170" y="378" width="40" height="30" as="geometry" />
        </mxCell>
        <mxCell id="n7GmRws4o9n9_fwbOli6-44" value="NO" style="text;html=1;align=center;verticalAlign=middle;resizable=0;points=[];autosize=1;strokeColor=none;fillColor=none;" parent="1" vertex="1">
          <mxGeometry x="170" y="218" width="40" height="30" as="geometry" />
        </mxCell>
        <mxCell id="n7GmRws4o9n9_fwbOli6-47" style="edgeStyle=orthogonalEdgeStyle;rounded=0;orthogonalLoop=1;jettySize=auto;html=1;exitX=0.5;exitY=1;exitDx=0;exitDy=0;entryX=0.5;entryY=0;entryDx=0;entryDy=0;entryPerimeter=0;" parent="1" target="n7GmRws4o9n9_fwbOli6-49" edge="1">
          <mxGeometry relative="1" as="geometry">
            <mxPoint x="303" y="660" as="sourcePoint" />
          </mxGeometry>
        </mxCell>
        <mxCell id="n7GmRws4o9n9_fwbOli6-48" style="edgeStyle=orthogonalEdgeStyle;rounded=0;orthogonalLoop=1;jettySize=auto;html=1;exitX=0;exitY=0.5;exitDx=0;exitDy=0;exitPerimeter=0;" parent="1" source="n7GmRws4o9n9_fwbOli6-49" edge="1">
          <mxGeometry relative="1" as="geometry">
            <mxPoint x="100" y="719.9230769230769" as="targetPoint" />
          </mxGeometry>
        </mxCell>
        <mxCell id="n7GmRws4o9n9_fwbOli6-54" style="edgeStyle=orthogonalEdgeStyle;rounded=0;orthogonalLoop=1;jettySize=auto;html=1;exitX=0.5;exitY=1;exitDx=0;exitDy=0;exitPerimeter=0;entryX=0.5;entryY=0;entryDx=0;entryDy=0;" parent="1" source="n7GmRws4o9n9_fwbOli6-49" target="n7GmRws4o9n9_fwbOli6-52" edge="1">
          <mxGeometry relative="1" as="geometry" />
        </mxCell>
        <mxCell id="n7GmRws4o9n9_fwbOli6-49" value="ACK&lt;br&gt;Returned" style="strokeWidth=2;html=1;shape=mxgraph.flowchart.decision;whiteSpace=wrap;" parent="1" vertex="1">
          <mxGeometry x="262.5" y="680" width="80" height="80" as="geometry" />
        </mxCell>
        <mxCell id="n7GmRws4o9n9_fwbOli6-50" value="NO" style="text;html=1;align=center;verticalAlign=middle;resizable=0;points=[];autosize=1;strokeColor=none;fillColor=none;" parent="1" vertex="1">
          <mxGeometry x="165" y="695" width="40" height="30" as="geometry" />
        </mxCell>
        <mxCell id="n7GmRws4o9n9_fwbOli6-51" value="YES" style="text;html=1;align=center;verticalAlign=middle;resizable=0;points=[];autosize=1;strokeColor=none;fillColor=none;" parent="1" vertex="1">
          <mxGeometry x="300" y="748" width="50" height="30" as="geometry" />
        </mxCell>
        <mxCell id="n7GmRws4o9n9_fwbOli6-52" value="Send Stop Condition" style="rounded=1;whiteSpace=wrap;html=1;absoluteArcSize=1;arcSize=14;strokeWidth=2;" parent="1" vertex="1">
          <mxGeometry x="230" y="800" width="145" height="30" as="geometry" />
        </mxCell>
      </root>
    </mxGraphModel>
  </diagram>
</mxfile>
