<mxfile host="Electron" modified="2023-05-22T17:15:48.308Z" agent="Mozilla/5.0 (Windows NT 10.0; Win64; x64) AppleWebKit/537.36 (KHTML, like Gecko) draw.io/21.2.8 Chrome/112.0.5615.165 Electron/24.2.0 Safari/537.36" etag="tZkcifcShkj-kV17xJ1z" version="21.2.8" type="device">
  <diagram name="Page-1" id="OnKRmVF-rZJeyT37phu9">
    <mxGraphModel dx="757" dy="654" grid="1" gridSize="10" guides="1" tooltips="1" connect="1" arrows="1" fold="1" page="1" pageScale="1" pageWidth="850" pageHeight="1100" math="0" shadow="0">
      <root>
        <mxCell id="0" />
        <mxCell id="1" parent="0" />
        <mxCell id="n7GmRws4o9n9_fwbOli6-9" style="edgeStyle=orthogonalEdgeStyle;rounded=0;orthogonalLoop=1;jettySize=auto;html=1;exitX=0.5;exitY=1;exitDx=0;exitDy=0;entryX=0.5;entryY=0;entryDx=0;entryDy=0;" parent="1" source="n7GmRws4o9n9_fwbOli6-3" target="n7GmRws4o9n9_fwbOli6-5" edge="1">
          <mxGeometry relative="1" as="geometry" />
        </mxCell>
        <mxCell id="n7GmRws4o9n9_fwbOli6-3" value="Read Blockof Data" style="rounded=1;whiteSpace=wrap;html=1;absoluteArcSize=1;arcSize=14;strokeWidth=2;" parent="1" vertex="1">
          <mxGeometry x="230" y="10" width="145" height="40" as="geometry" />
        </mxCell>
        <mxCell id="n7GmRws4o9n9_fwbOli6-10" style="edgeStyle=orthogonalEdgeStyle;rounded=0;orthogonalLoop=1;jettySize=auto;html=1;exitX=0.5;exitY=1;exitDx=0;exitDy=0;entryX=0.5;entryY=0;entryDx=0;entryDy=0;" parent="1" source="n7GmRws4o9n9_fwbOli6-5" target="n7GmRws4o9n9_fwbOli6-6" edge="1">
          <mxGeometry relative="1" as="geometry" />
        </mxCell>
        <mxCell id="n7GmRws4o9n9_fwbOli6-5" value="Start Condition" style="rounded=1;whiteSpace=wrap;html=1;absoluteArcSize=1;arcSize=14;strokeWidth=2;" parent="1" vertex="1">
          <mxGeometry x="230" y="80" width="145" height="30" as="geometry" />
        </mxCell>
        <mxCell id="n7GmRws4o9n9_fwbOli6-11" style="edgeStyle=orthogonalEdgeStyle;rounded=0;orthogonalLoop=1;jettySize=auto;html=1;exitX=0.5;exitY=1;exitDx=0;exitDy=0;entryX=0.5;entryY=0;entryDx=0;entryDy=0;entryPerimeter=0;" parent="1" source="n7GmRws4o9n9_fwbOli6-6" target="n7GmRws4o9n9_fwbOli6-7" edge="1">
          <mxGeometry relative="1" as="geometry" />
        </mxCell>
        <mxCell id="n7GmRws4o9n9_fwbOli6-6" value="Device select Address&lt;br&gt; with R&lt;u&gt;W&lt;/u&gt; = 0" style="rounded=1;whiteSpace=wrap;html=1;absoluteArcSize=1;arcSize=14;strokeWidth=2;" parent="1" vertex="1">
          <mxGeometry x="230" y="140" width="145" height="40" as="geometry" />
        </mxCell>
        <mxCell id="n7GmRws4o9n9_fwbOli6-8" style="edgeStyle=elbowEdgeStyle;rounded=0;orthogonalLoop=1;jettySize=auto;html=1;exitX=0;exitY=0.5;exitDx=0;exitDy=0;exitPerimeter=0;entryX=0.5;entryY=0;entryDx=0;entryDy=0;elbow=vertical;" parent="1" source="n7GmRws4o9n9_fwbOli6-7" target="n7GmRws4o9n9_fwbOli6-13" edge="1">
          <mxGeometry relative="1" as="geometry">
            <mxPoint x="440" y="60" as="targetPoint" />
            <Array as="points">
              <mxPoint x="80" y="240" />
              <mxPoint x="90" y="240" />
            </Array>
          </mxGeometry>
        </mxCell>
        <mxCell id="n7GmRws4o9n9_fwbOli6-15" style="edgeStyle=orthogonalEdgeStyle;rounded=0;orthogonalLoop=1;jettySize=auto;html=1;exitX=0.5;exitY=1;exitDx=0;exitDy=0;exitPerimeter=0;entryX=0.5;entryY=0;entryDx=0;entryDy=0;" parent="1" source="n7GmRws4o9n9_fwbOli6-7" target="n7GmRws4o9n9_fwbOli6-14" edge="1">
          <mxGeometry relative="1" as="geometry" />
        </mxCell>
        <mxCell id="n7GmRws4o9n9_fwbOli6-7" value="ACK&lt;br&gt;Returned" style="strokeWidth=2;html=1;shape=mxgraph.flowchart.decision;whiteSpace=wrap;" parent="1" vertex="1">
          <mxGeometry x="262.5" y="200" width="80" height="80" as="geometry" />
        </mxCell>
        <mxCell id="n7GmRws4o9n9_fwbOli6-13" value="STOP" style="rounded=1;whiteSpace=wrap;html=1;absoluteArcSize=1;arcSize=14;strokeWidth=2;" parent="1" vertex="1">
          <mxGeometry x="30" y="1420" width="145" height="30" as="geometry" />
        </mxCell>
        <mxCell id="n7GmRws4o9n9_fwbOli6-19" style="edgeStyle=orthogonalEdgeStyle;rounded=0;orthogonalLoop=1;jettySize=auto;html=1;exitX=0.5;exitY=1;exitDx=0;exitDy=0;entryX=0.5;entryY=0;entryDx=0;entryDy=0;entryPerimeter=0;" parent="1" source="n7GmRws4o9n9_fwbOli6-14" target="n7GmRws4o9n9_fwbOli6-18" edge="1">
          <mxGeometry relative="1" as="geometry" />
        </mxCell>
        <mxCell id="n7GmRws4o9n9_fwbOli6-14" value="Send Operation Code &lt;br&gt;and recive ACK" style="rounded=1;whiteSpace=wrap;html=1;absoluteArcSize=1;arcSize=14;strokeWidth=2;" parent="1" vertex="1">
          <mxGeometry x="230" y="310" width="145" height="30" as="geometry" />
        </mxCell>
        <mxCell id="n7GmRws4o9n9_fwbOli6-22" style="edgeStyle=orthogonalEdgeStyle;rounded=0;orthogonalLoop=1;jettySize=auto;html=1;exitX=0;exitY=0.5;exitDx=0;exitDy=0;exitPerimeter=0;entryX=1;entryY=0.5;entryDx=0;entryDy=0;" parent="1" source="n7GmRws4o9n9_fwbOli6-18" edge="1" target="uT63ysfnhO_QvYlRNEDG-36">
          <mxGeometry relative="1" as="geometry">
            <mxPoint x="130" y="400" as="targetPoint" />
          </mxGeometry>
        </mxCell>
        <mxCell id="n7GmRws4o9n9_fwbOli6-29" style="edgeStyle=orthogonalEdgeStyle;rounded=0;orthogonalLoop=1;jettySize=auto;html=1;exitX=0.5;exitY=1;exitDx=0;exitDy=0;exitPerimeter=0;entryX=0.5;entryY=0;entryDx=0;entryDy=0;" parent="1" source="n7GmRws4o9n9_fwbOli6-18" edge="1">
          <mxGeometry relative="1" as="geometry">
            <mxPoint x="302.5" y="470" as="targetPoint" />
          </mxGeometry>
        </mxCell>
        <mxCell id="n7GmRws4o9n9_fwbOli6-18" value="ACK&lt;br&gt;Returned" style="strokeWidth=2;html=1;shape=mxgraph.flowchart.decision;whiteSpace=wrap;" parent="1" vertex="1">
          <mxGeometry x="262.5" y="360" width="80" height="80" as="geometry" />
        </mxCell>
        <mxCell id="n7GmRws4o9n9_fwbOli6-32" style="edgeStyle=orthogonalEdgeStyle;rounded=0;orthogonalLoop=1;jettySize=auto;html=1;exitX=0.473;exitY=0.986;exitDx=0;exitDy=0;exitPerimeter=0;dashed=1;" parent="1" source="uT63ysfnhO_QvYlRNEDG-25" edge="1">
          <mxGeometry relative="1" as="geometry">
            <mxPoint x="295" y="720" as="sourcePoint" />
            <mxPoint x="200" y="630" as="targetPoint" />
            <Array as="points">
              <mxPoint x="200" y="600" />
            </Array>
          </mxGeometry>
        </mxCell>
        <mxCell id="n7GmRws4o9n9_fwbOli6-39" value="NO" style="text;html=1;align=center;verticalAlign=middle;resizable=0;points=[];autosize=1;strokeColor=none;fillColor=none;" parent="1" vertex="1">
          <mxGeometry x="398.75" y="640" width="40" height="30" as="geometry" />
        </mxCell>
        <mxCell id="n7GmRws4o9n9_fwbOli6-41" value="YES" style="text;html=1;align=center;verticalAlign=middle;resizable=0;points=[];autosize=1;strokeColor=none;fillColor=none;" parent="1" vertex="1">
          <mxGeometry x="295" y="430" width="50" height="30" as="geometry" />
        </mxCell>
        <mxCell id="n7GmRws4o9n9_fwbOli6-42" value="YES" style="text;html=1;align=center;verticalAlign=middle;resizable=0;points=[];autosize=1;strokeColor=none;fillColor=none;" parent="1" vertex="1">
          <mxGeometry x="295" y="270" width="50" height="30" as="geometry" />
        </mxCell>
        <mxCell id="n7GmRws4o9n9_fwbOli6-43" value="NO" style="text;html=1;align=center;verticalAlign=middle;resizable=0;points=[];autosize=1;strokeColor=none;fillColor=none;" parent="1" vertex="1">
          <mxGeometry x="170" y="378" width="40" height="30" as="geometry" />
        </mxCell>
        <mxCell id="n7GmRws4o9n9_fwbOli6-44" value="NO" style="text;html=1;align=center;verticalAlign=middle;resizable=0;points=[];autosize=1;strokeColor=none;fillColor=none;" parent="1" vertex="1">
          <mxGeometry x="170" y="218" width="40" height="30" as="geometry" />
        </mxCell>
        <mxCell id="n7GmRws4o9n9_fwbOli6-48" style="edgeStyle=orthogonalEdgeStyle;rounded=0;orthogonalLoop=1;jettySize=auto;html=1;entryX=1;entryY=0.5;entryDx=0;entryDy=0;exitX=0;exitY=0.5;exitDx=0;exitDy=0;exitPerimeter=0;" parent="1" source="uT63ysfnhO_QvYlRNEDG-14" edge="1" target="uT63ysfnhO_QvYlRNEDG-38">
          <mxGeometry relative="1" as="geometry">
            <mxPoint x="110" y="840" as="targetPoint" />
            <mxPoint x="437.5" y="839.83" as="sourcePoint" />
          </mxGeometry>
        </mxCell>
        <mxCell id="n7GmRws4o9n9_fwbOli6-50" value="NO" style="text;html=1;align=center;verticalAlign=middle;resizable=0;points=[];autosize=1;strokeColor=none;fillColor=none;" parent="1" vertex="1">
          <mxGeometry x="398.75" y="820" width="40" height="30" as="geometry" />
        </mxCell>
        <mxCell id="uT63ysfnhO_QvYlRNEDG-5" style="edgeStyle=orthogonalEdgeStyle;rounded=0;orthogonalLoop=1;jettySize=auto;html=1;exitX=1;exitY=0.5;exitDx=0;exitDy=0;exitPerimeter=0;entryX=0;entryY=0.5;entryDx=0;entryDy=0;" edge="1" parent="1" source="uT63ysfnhO_QvYlRNEDG-1" target="uT63ysfnhO_QvYlRNEDG-4">
          <mxGeometry relative="1" as="geometry" />
        </mxCell>
        <mxCell id="uT63ysfnhO_QvYlRNEDG-26" style="edgeStyle=orthogonalEdgeStyle;rounded=0;orthogonalLoop=1;jettySize=auto;html=1;exitX=0;exitY=0.5;exitDx=0;exitDy=0;exitPerimeter=0;entryX=0.482;entryY=-0.033;entryDx=0;entryDy=0;entryPerimeter=0;" edge="1" parent="1" source="uT63ysfnhO_QvYlRNEDG-1" target="uT63ysfnhO_QvYlRNEDG-25">
          <mxGeometry relative="1" as="geometry" />
        </mxCell>
        <mxCell id="uT63ysfnhO_QvYlRNEDG-1" value="Next operation &lt;br&gt;is send data&amp;nbsp;" style="strokeWidth=2;html=1;shape=mxgraph.flowchart.decision;whiteSpace=wrap;" vertex="1" parent="1">
          <mxGeometry x="246.25" y="470" width="112.5" height="100" as="geometry" />
        </mxCell>
        <mxCell id="uT63ysfnhO_QvYlRNEDG-3" value="NO" style="text;html=1;align=center;verticalAlign=middle;resizable=0;points=[];autosize=1;strokeColor=none;fillColor=none;" vertex="1" parent="1">
          <mxGeometry x="358.75" y="490" width="40" height="30" as="geometry" />
        </mxCell>
        <mxCell id="uT63ysfnhO_QvYlRNEDG-4" value="Send Repeat START" style="rounded=1;whiteSpace=wrap;html=1;absoluteArcSize=1;arcSize=14;strokeWidth=2;" vertex="1" parent="1">
          <mxGeometry x="410" y="505" width="145" height="30" as="geometry" />
        </mxCell>
        <mxCell id="uT63ysfnhO_QvYlRNEDG-6" style="edgeStyle=orthogonalEdgeStyle;rounded=0;orthogonalLoop=1;jettySize=auto;html=1;exitX=0.5;exitY=1;exitDx=0;exitDy=0;entryX=0.5;entryY=0;entryDx=0;entryDy=0;" edge="1" parent="1" target="uT63ysfnhO_QvYlRNEDG-8">
          <mxGeometry relative="1" as="geometry">
            <mxPoint x="483" y="538" as="sourcePoint" />
          </mxGeometry>
        </mxCell>
        <mxCell id="uT63ysfnhO_QvYlRNEDG-7" style="edgeStyle=orthogonalEdgeStyle;rounded=0;orthogonalLoop=1;jettySize=auto;html=1;exitX=0.5;exitY=1;exitDx=0;exitDy=0;entryX=0.5;entryY=0;entryDx=0;entryDy=0;entryPerimeter=0;" edge="1" parent="1" source="uT63ysfnhO_QvYlRNEDG-8" target="uT63ysfnhO_QvYlRNEDG-10">
          <mxGeometry relative="1" as="geometry" />
        </mxCell>
        <mxCell id="uT63ysfnhO_QvYlRNEDG-8" value="Device select Address&lt;br&gt; with R&lt;u&gt;W&lt;/u&gt; = 1" style="rounded=1;whiteSpace=wrap;html=1;absoluteArcSize=1;arcSize=14;strokeWidth=2;" vertex="1" parent="1">
          <mxGeometry x="410" y="568" width="145" height="40" as="geometry" />
        </mxCell>
        <mxCell id="uT63ysfnhO_QvYlRNEDG-9" style="edgeStyle=orthogonalEdgeStyle;rounded=0;orthogonalLoop=1;jettySize=auto;html=1;exitX=0.5;exitY=1;exitDx=0;exitDy=0;exitPerimeter=0;entryX=0.5;entryY=0;entryDx=0;entryDy=0;" edge="1" parent="1" source="uT63ysfnhO_QvYlRNEDG-10">
          <mxGeometry relative="1" as="geometry">
            <mxPoint x="483" y="738" as="targetPoint" />
          </mxGeometry>
        </mxCell>
        <mxCell id="uT63ysfnhO_QvYlRNEDG-35" style="edgeStyle=orthogonalEdgeStyle;rounded=0;orthogonalLoop=1;jettySize=auto;html=1;exitX=0;exitY=0.5;exitDx=0;exitDy=0;exitPerimeter=0;entryX=1;entryY=0.5;entryDx=0;entryDy=0;" edge="1" parent="1" source="uT63ysfnhO_QvYlRNEDG-10" target="uT63ysfnhO_QvYlRNEDG-34">
          <mxGeometry relative="1" as="geometry" />
        </mxCell>
        <mxCell id="uT63ysfnhO_QvYlRNEDG-10" value="ACK&lt;br&gt;Returned" style="strokeWidth=2;html=1;shape=mxgraph.flowchart.decision;whiteSpace=wrap;" vertex="1" parent="1">
          <mxGeometry x="442.5" y="630" width="80" height="80" as="geometry" />
        </mxCell>
        <mxCell id="uT63ysfnhO_QvYlRNEDG-11" value="YES" style="text;html=1;align=center;verticalAlign=middle;resizable=0;points=[];autosize=1;strokeColor=none;fillColor=none;" vertex="1" parent="1">
          <mxGeometry x="475" y="698" width="50" height="30" as="geometry" />
        </mxCell>
        <mxCell id="uT63ysfnhO_QvYlRNEDG-17" style="edgeStyle=orthogonalEdgeStyle;rounded=0;orthogonalLoop=1;jettySize=auto;html=1;exitX=0.5;exitY=1;exitDx=0;exitDy=0;entryX=0.5;entryY=0;entryDx=0;entryDy=0;entryPerimeter=0;" edge="1" parent="1" source="uT63ysfnhO_QvYlRNEDG-12" target="uT63ysfnhO_QvYlRNEDG-14">
          <mxGeometry relative="1" as="geometry" />
        </mxCell>
        <mxCell id="uT63ysfnhO_QvYlRNEDG-12" value="Receive Payload Numbers of Bytes &lt;b&gt;[N]&lt;/b&gt; and ACK" style="rounded=1;whiteSpace=wrap;html=1;absoluteArcSize=1;arcSize=14;strokeWidth=2;" vertex="1" parent="1">
          <mxGeometry x="410" y="740" width="145" height="30" as="geometry" />
        </mxCell>
        <mxCell id="uT63ysfnhO_QvYlRNEDG-13" style="edgeStyle=orthogonalEdgeStyle;rounded=0;orthogonalLoop=1;jettySize=auto;html=1;exitX=0.5;exitY=1;exitDx=0;exitDy=0;exitPerimeter=0;entryX=0.5;entryY=0;entryDx=0;entryDy=0;" edge="1" parent="1" source="uT63ysfnhO_QvYlRNEDG-14">
          <mxGeometry relative="1" as="geometry">
            <mxPoint x="483" y="908" as="targetPoint" />
          </mxGeometry>
        </mxCell>
        <mxCell id="uT63ysfnhO_QvYlRNEDG-14" value="ACK&lt;br&gt;Returned" style="strokeWidth=2;html=1;shape=mxgraph.flowchart.decision;whiteSpace=wrap;" vertex="1" parent="1">
          <mxGeometry x="442.5" y="800" width="80" height="80" as="geometry" />
        </mxCell>
        <mxCell id="uT63ysfnhO_QvYlRNEDG-15" value="YES" style="text;html=1;align=center;verticalAlign=middle;resizable=0;points=[];autosize=1;strokeColor=none;fillColor=none;" vertex="1" parent="1">
          <mxGeometry x="475" y="868" width="50" height="30" as="geometry" />
        </mxCell>
        <mxCell id="uT63ysfnhO_QvYlRNEDG-21" style="edgeStyle=orthogonalEdgeStyle;rounded=0;orthogonalLoop=1;jettySize=auto;html=1;exitX=0.5;exitY=1;exitDx=0;exitDy=0;entryX=0.5;entryY=0;entryDx=0;entryDy=0;" edge="1" parent="1" source="uT63ysfnhO_QvYlRNEDG-16" target="uT63ysfnhO_QvYlRNEDG-20">
          <mxGeometry relative="1" as="geometry" />
        </mxCell>
        <mxCell id="uT63ysfnhO_QvYlRNEDG-16" value="Receive CRC8" style="rounded=1;whiteSpace=wrap;html=1;absoluteArcSize=1;arcSize=14;strokeWidth=2;" vertex="1" parent="1">
          <mxGeometry x="410" y="1350" width="145" height="30" as="geometry" />
        </mxCell>
        <mxCell id="uT63ysfnhO_QvYlRNEDG-19" value="Send Stop Condition" style="rounded=1;whiteSpace=wrap;html=1;absoluteArcSize=1;arcSize=14;strokeWidth=2;" vertex="1" parent="1">
          <mxGeometry x="410" y="1510" width="145" height="30" as="geometry" />
        </mxCell>
        <mxCell id="uT63ysfnhO_QvYlRNEDG-22" style="edgeStyle=orthogonalEdgeStyle;rounded=0;orthogonalLoop=1;jettySize=auto;html=1;exitX=0.5;exitY=1;exitDx=0;exitDy=0;entryX=0.5;entryY=0;entryDx=0;entryDy=0;" edge="1" parent="1" source="uT63ysfnhO_QvYlRNEDG-20" target="uT63ysfnhO_QvYlRNEDG-19">
          <mxGeometry relative="1" as="geometry" />
        </mxCell>
        <mxCell id="uT63ysfnhO_QvYlRNEDG-20" value="Send NACK" style="rounded=1;whiteSpace=wrap;html=1;absoluteArcSize=1;arcSize=14;strokeWidth=2;" vertex="1" parent="1">
          <mxGeometry x="410" y="1430" width="145" height="30" as="geometry" />
        </mxCell>
        <mxCell id="uT63ysfnhO_QvYlRNEDG-25" value="Data for Write&amp;nbsp;&lt;br&gt;operation" style="rounded=1;whiteSpace=wrap;html=1;absoluteArcSize=1;arcSize=14;strokeWidth=2;" vertex="1" parent="1">
          <mxGeometry x="130" y="570" width="145" height="30" as="geometry" />
        </mxCell>
        <mxCell id="uT63ysfnhO_QvYlRNEDG-27" value="YES" style="text;html=1;align=center;verticalAlign=middle;resizable=0;points=[];autosize=1;strokeColor=none;fillColor=none;" vertex="1" parent="1">
          <mxGeometry x="197.5" y="490" width="50" height="30" as="geometry" />
        </mxCell>
        <mxCell id="uT63ysfnhO_QvYlRNEDG-28" value="Continue to send data" style="text;html=1;strokeColor=none;fillColor=none;align=center;verticalAlign=middle;whiteSpace=wrap;rounded=0;" vertex="1" parent="1">
          <mxGeometry x="140" y="625" width="120" height="30" as="geometry" />
        </mxCell>
        <mxCell id="uT63ysfnhO_QvYlRNEDG-34" value="" style="shape=ellipse;fillColor=#330000;strokeColor=none;html=1;sketch=0;" vertex="1" parent="1">
          <mxGeometry x="97.5" y="688" width="10" height="10" as="geometry" />
        </mxCell>
        <mxCell id="uT63ysfnhO_QvYlRNEDG-36" value="" style="shape=ellipse;fillColor=#330000;strokeColor=none;html=1;sketch=0;" vertex="1" parent="1">
          <mxGeometry x="97.5" y="395" width="10" height="10" as="geometry" />
        </mxCell>
        <mxCell id="uT63ysfnhO_QvYlRNEDG-38" value="" style="shape=ellipse;fillColor=#330000;strokeColor=none;html=1;sketch=0;" vertex="1" parent="1">
          <mxGeometry x="97.5" y="835" width="10" height="10" as="geometry" />
        </mxCell>
        <mxCell id="uT63ysfnhO_QvYlRNEDG-40" style="edgeStyle=orthogonalEdgeStyle;rounded=0;orthogonalLoop=1;jettySize=auto;html=1;exitX=0.5;exitY=1;exitDx=0;exitDy=0;exitPerimeter=0;entryX=0.5;entryY=0;entryDx=0;entryDy=0;" edge="1" parent="1" source="uT63ysfnhO_QvYlRNEDG-41">
          <mxGeometry relative="1" as="geometry">
            <mxPoint x="483" y="1078" as="targetPoint" />
          </mxGeometry>
        </mxCell>
        <mxCell id="uT63ysfnhO_QvYlRNEDG-41" value="ACK&lt;br&gt;Returned" style="strokeWidth=2;html=1;shape=mxgraph.flowchart.decision;whiteSpace=wrap;" vertex="1" parent="1">
          <mxGeometry x="442.5" y="970" width="80" height="80" as="geometry" />
        </mxCell>
        <mxCell id="uT63ysfnhO_QvYlRNEDG-42" value="YES" style="text;html=1;align=center;verticalAlign=middle;resizable=0;points=[];autosize=1;strokeColor=none;fillColor=none;" vertex="1" parent="1">
          <mxGeometry x="475" y="1038" width="50" height="30" as="geometry" />
        </mxCell>
        <mxCell id="uT63ysfnhO_QvYlRNEDG-44" style="edgeStyle=orthogonalEdgeStyle;rounded=0;orthogonalLoop=1;jettySize=auto;html=1;exitX=0.5;exitY=1;exitDx=0;exitDy=0;entryX=0.5;entryY=0;entryDx=0;entryDy=0;entryPerimeter=0;" edge="1" parent="1" source="uT63ysfnhO_QvYlRNEDG-43" target="uT63ysfnhO_QvYlRNEDG-41">
          <mxGeometry relative="1" as="geometry" />
        </mxCell>
        <mxCell id="uT63ysfnhO_QvYlRNEDG-43" value="Receive Data[0]&amp;nbsp; and ACK" style="rounded=1;whiteSpace=wrap;html=1;absoluteArcSize=1;arcSize=14;strokeWidth=2;" vertex="1" parent="1">
          <mxGeometry x="410" y="910" width="145" height="30" as="geometry" />
        </mxCell>
        <mxCell id="uT63ysfnhO_QvYlRNEDG-46" value="" style="endArrow=none;html=1;rounded=0;dashed=1;" edge="1" parent="1">
          <mxGeometry width="50" height="50" relative="1" as="geometry">
            <mxPoint x="483" y="1100" as="sourcePoint" />
            <mxPoint x="483" y="1080" as="targetPoint" />
          </mxGeometry>
        </mxCell>
        <mxCell id="uT63ysfnhO_QvYlRNEDG-48" style="edgeStyle=orthogonalEdgeStyle;rounded=0;orthogonalLoop=1;jettySize=auto;html=1;exitX=0.5;exitY=1;exitDx=0;exitDy=0;exitPerimeter=0;entryX=0.5;entryY=0;entryDx=0;entryDy=0;" edge="1" parent="1" source="uT63ysfnhO_QvYlRNEDG-49">
          <mxGeometry relative="1" as="geometry">
            <mxPoint x="483" y="1348" as="targetPoint" />
          </mxGeometry>
        </mxCell>
        <mxCell id="uT63ysfnhO_QvYlRNEDG-49" value="ACK&lt;br&gt;Returned" style="strokeWidth=2;html=1;shape=mxgraph.flowchart.decision;whiteSpace=wrap;" vertex="1" parent="1">
          <mxGeometry x="442.5" y="1240" width="80" height="80" as="geometry" />
        </mxCell>
        <mxCell id="uT63ysfnhO_QvYlRNEDG-50" value="YES" style="text;html=1;align=center;verticalAlign=middle;resizable=0;points=[];autosize=1;strokeColor=none;fillColor=none;" vertex="1" parent="1">
          <mxGeometry x="475" y="1308" width="50" height="30" as="geometry" />
        </mxCell>
        <mxCell id="uT63ysfnhO_QvYlRNEDG-51" style="edgeStyle=orthogonalEdgeStyle;rounded=0;orthogonalLoop=1;jettySize=auto;html=1;exitX=0.5;exitY=1;exitDx=0;exitDy=0;entryX=0.5;entryY=0;entryDx=0;entryDy=0;entryPerimeter=0;" edge="1" parent="1" source="uT63ysfnhO_QvYlRNEDG-52" target="uT63ysfnhO_QvYlRNEDG-49">
          <mxGeometry relative="1" as="geometry" />
        </mxCell>
        <mxCell id="uT63ysfnhO_QvYlRNEDG-52" value="Receive Data[N-1]&amp;nbsp; &lt;br&gt;and ACK" style="rounded=1;whiteSpace=wrap;html=1;absoluteArcSize=1;arcSize=14;strokeWidth=2;" vertex="1" parent="1">
          <mxGeometry x="410" y="1180" width="145" height="30" as="geometry" />
        </mxCell>
        <mxCell id="uT63ysfnhO_QvYlRNEDG-54" style="edgeStyle=orthogonalEdgeStyle;rounded=0;orthogonalLoop=1;jettySize=auto;html=1;entryX=1;entryY=0.5;entryDx=0;entryDy=0;exitX=0;exitY=0.5;exitDx=0;exitDy=0;exitPerimeter=0;" edge="1" parent="1">
          <mxGeometry relative="1" as="geometry">
            <mxPoint x="106.5" y="1010" as="targetPoint" />
            <mxPoint x="442.5" y="1010" as="sourcePoint" />
          </mxGeometry>
        </mxCell>
        <mxCell id="uT63ysfnhO_QvYlRNEDG-55" value="NO" style="text;html=1;align=center;verticalAlign=middle;resizable=0;points=[];autosize=1;strokeColor=none;fillColor=none;" vertex="1" parent="1">
          <mxGeometry x="398.25" y="990" width="40" height="30" as="geometry" />
        </mxCell>
        <mxCell id="uT63ysfnhO_QvYlRNEDG-56" style="edgeStyle=orthogonalEdgeStyle;rounded=0;orthogonalLoop=1;jettySize=auto;html=1;exitX=0;exitY=0.5;exitDx=0;exitDy=0;exitPerimeter=0;" edge="1" parent="1" source="uT63ysfnhO_QvYlRNEDG-49">
          <mxGeometry relative="1" as="geometry">
            <mxPoint x="110" y="1280" as="targetPoint" />
            <mxPoint x="442.5" y="1220" as="sourcePoint" />
          </mxGeometry>
        </mxCell>
        <mxCell id="uT63ysfnhO_QvYlRNEDG-57" value="NO" style="text;html=1;align=center;verticalAlign=middle;resizable=0;points=[];autosize=1;strokeColor=none;fillColor=none;" vertex="1" parent="1">
          <mxGeometry x="398.25" y="1260" width="40" height="30" as="geometry" />
        </mxCell>
        <mxCell id="uT63ysfnhO_QvYlRNEDG-58" style="edgeStyle=orthogonalEdgeStyle;rounded=0;orthogonalLoop=1;jettySize=auto;html=1;dashed=1;" edge="1" parent="1" source="uT63ysfnhO_QvYlRNEDG-63">
          <mxGeometry relative="1" as="geometry">
            <mxPoint x="110" y="1115" as="targetPoint" />
            <mxPoint x="470" y="1090" as="sourcePoint" />
          </mxGeometry>
        </mxCell>
        <mxCell id="uT63ysfnhO_QvYlRNEDG-59" value="NO ACK" style="text;html=1;align=center;verticalAlign=middle;resizable=0;points=[];autosize=1;strokeColor=none;fillColor=none;" vertex="1" parent="1">
          <mxGeometry x="328.25" y="1120" width="70" height="30" as="geometry" />
        </mxCell>
        <mxCell id="uT63ysfnhO_QvYlRNEDG-60" value="" style="shape=ellipse;fillColor=#330000;strokeColor=none;html=1;sketch=0;" vertex="1" parent="1">
          <mxGeometry x="97.5" y="1110" width="10" height="10" as="geometry" />
        </mxCell>
        <mxCell id="uT63ysfnhO_QvYlRNEDG-62" value="" style="shape=ellipse;fillColor=#330000;strokeColor=none;html=1;sketch=0;" vertex="1" parent="1">
          <mxGeometry x="97.5" y="1005" width="10" height="10" as="geometry" />
        </mxCell>
        <mxCell id="uT63ysfnhO_QvYlRNEDG-63" value="Continue to receive &lt;br&gt;Data" style="text;html=1;align=center;verticalAlign=middle;resizable=0;points=[];autosize=1;strokeColor=none;fillColor=none;" vertex="1" parent="1">
          <mxGeometry x="417.5" y="1095" width="130" height="40" as="geometry" />
        </mxCell>
        <mxCell id="uT63ysfnhO_QvYlRNEDG-64" value="" style="endArrow=none;html=1;rounded=0;dashed=1;" edge="1" parent="1">
          <mxGeometry width="50" height="50" relative="1" as="geometry">
            <mxPoint x="482.40000000000003" y="1150" as="sourcePoint" />
            <mxPoint x="482.40000000000003" y="1130" as="targetPoint" />
          </mxGeometry>
        </mxCell>
        <mxCell id="uT63ysfnhO_QvYlRNEDG-65" style="edgeStyle=orthogonalEdgeStyle;rounded=0;orthogonalLoop=1;jettySize=auto;html=1;exitX=0.5;exitY=1;exitDx=0;exitDy=0;exitPerimeter=0;entryX=0.5;entryY=0;entryDx=0;entryDy=0;" edge="1" parent="1">
          <mxGeometry relative="1" as="geometry">
            <mxPoint x="482.4" y="1180" as="targetPoint" />
            <mxPoint x="482.4" y="1152" as="sourcePoint" />
          </mxGeometry>
        </mxCell>
      </root>
    </mxGraphModel>
  </diagram>
</mxfile>
